solid OpenSCAD_Model
  facet normal 0.000000 -0.000000 -1.000000
    outer loop
      vertex 1.148050 2.771639 0.000000
      vertex -2.500000 4.330127 0.000000
      vertex 2.500000 4.330127 0.000000
    endloop
  endfacet
  facet normal -0.000000 -0.000000 -1.000000
    outer loop
      vertex 2.942356 0.585271 0.000000
      vertex 2.500000 4.330127 0.000000
      vertex 5.000000 0.000000 0.000000
    endloop
  endfacet
  facet normal -0.000000 0.000000 -1.000000
    outer loop
      vertex 1.666711 -2.494409 0.000000
      vertex 5.000000 0.000000 0.000000
      vertex 2.500000 -4.330127 0.000000
    endloop
  endfacet
  facet normal 0.000000 0.000000 -1.000000
    outer loop
      vertex -5.000000 0.000000 0.000000
      vertex -3.000000 0.000000 0.000000
      vertex -2.942356 -0.585271 0.000000
    endloop
  endfacet
  facet normal 0.000000 0.000000 -1.000000
    outer loop
      vertex -5.000000 0.000000 0.000000
      vertex -2.942356 -0.585271 0.000000
      vertex -2.500000 -4.330127 0.000000
    endloop
  endfacet
  facet normal 0.000000 0.000000 -1.000000
    outer loop
      vertex -2.942356 0.585271 0.000000
      vertex -2.500000 4.330127 0.000000
      vertex -2.771639 1.148050 0.000000
    endloop
  endfacet
  facet normal 0.000000 0.000000 -1.000000
    outer loop
      vertex -2.494409 -1.666711 0.000000
      vertex -2.500000 -4.330127 0.000000
      vertex -2.771639 -1.148050 0.000000
    endloop
  endfacet
  facet normal 0.000000 0.000000 -1.000000
    outer loop
      vertex -1.148050 -2.771639 0.000000
      vertex -2.500000 -4.330127 0.000000
      vertex -1.666711 -2.494409 0.000000
    endloop
  endfacet
  facet normal 0.000000 0.000000 -1.000000
    outer loop
      vertex -2.500000 -4.330127 0.000000
      vertex -2.494409 -1.666711 0.000000
      vertex -2.121320 -2.121320 0.000000
    endloop
  endfacet
  facet normal 0.000000 0.000000 -1.000000
    outer loop
      vertex -2.500000 -4.330127 0.000000
      vertex -2.121320 -2.121320 0.000000
      vertex -1.666711 -2.494409 0.000000
    endloop
  endfacet
  facet normal 0.000000 0.000000 -1.000000
    outer loop
      vertex 0.000000 -3.000000 0.000000
      vertex -2.500000 -4.330127 0.000000
      vertex -0.585271 -2.942356 0.000000
    endloop
  endfacet
  facet normal 0.000000 0.000000 -1.000000
    outer loop
      vertex -2.500000 -4.330127 0.000000
      vertex -1.148050 -2.771639 0.000000
      vertex -0.585271 -2.942356 0.000000
    endloop
  endfacet
  facet normal -0.000000 0.000000 -1.000000
    outer loop
      vertex 2.494409 -1.666711 0.000000
      vertex 5.000000 0.000000 0.000000
      vertex 2.121320 -2.121320 0.000000
    endloop
  endfacet
  facet normal -0.000000 0.000000 -1.000000
    outer loop
      vertex -2.500000 -4.330127 0.000000
      vertex 0.000000 -3.000000 0.000000
      vertex 2.500000 -4.330127 0.000000
    endloop
  endfacet
  facet normal -0.000000 0.000000 -1.000000
    outer loop
      vertex 2.771639 -1.148050 0.000000
      vertex 5.000000 0.000000 0.000000
      vertex 2.494409 -1.666711 0.000000
    endloop
  endfacet
  facet normal -0.000000 0.000000 -1.000000
    outer loop
      vertex 0.000000 -3.000000 0.000000
      vertex 0.585271 -2.942356 0.000000
      vertex 2.500000 -4.330127 0.000000
    endloop
  endfacet
  facet normal -0.000000 0.000000 -1.000000
    outer loop
      vertex 0.585271 -2.942356 0.000000
      vertex 1.148050 -2.771639 0.000000
      vertex 2.500000 -4.330127 0.000000
    endloop
  endfacet
  facet normal -0.000000 0.000000 -1.000000
    outer loop
      vertex 2.121320 -2.121320 0.000000
      vertex 5.000000 0.000000 0.000000
      vertex 1.666711 -2.494409 0.000000
    endloop
  endfacet
  facet normal -0.000000 0.000000 -1.000000
    outer loop
      vertex 1.148050 -2.771639 0.000000
      vertex 1.666711 -2.494409 0.000000
      vertex 2.500000 -4.330127 0.000000
    endloop
  endfacet
  facet normal -0.000000 0.000000 -1.000000
    outer loop
      vertex 2.942356 -0.585271 0.000000
      vertex 5.000000 0.000000 0.000000
      vertex 2.771639 -1.148050 0.000000
    endloop
  endfacet
  facet normal -0.000000 0.000000 -1.000000
    outer loop
      vertex 1.148050 2.771639 0.000000
      vertex 2.500000 4.330127 0.000000
      vertex 1.666711 2.494409 0.000000
    endloop
  endfacet
  facet normal -0.000000 -0.000000 -1.000000
    outer loop
      vertex 2.771639 1.148050 0.000000
      vertex 2.500000 4.330127 0.000000
      vertex 2.942356 0.585271 0.000000
    endloop
  endfacet
  facet normal 0.000000 0.000000 -1.000000
    outer loop
      vertex 2.942356 -0.585271 0.000000
      vertex 3.000000 0.000000 0.000000
      vertex 5.000000 0.000000 0.000000
    endloop
  endfacet
  facet normal -0.000000 -0.000000 -1.000000
    outer loop
      vertex 3.000000 0.000000 0.000000
      vertex 2.942356 0.585271 0.000000
      vertex 5.000000 0.000000 0.000000
    endloop
  endfacet
  facet normal -0.000000 0.000000 -1.000000
    outer loop
      vertex 2.494409 1.666711 0.000000
      vertex 2.500000 4.330127 0.000000
      vertex 2.771639 1.148050 0.000000
    endloop
  endfacet
  facet normal -0.000000 0.000000 -1.000000
    outer loop
      vertex 2.121320 2.121320 0.000000
      vertex 2.500000 4.330127 0.000000
      vertex 2.494409 1.666711 0.000000
    endloop
  endfacet
  facet normal -0.000000 0.000000 -1.000000
    outer loop
      vertex 1.666711 2.494409 0.000000
      vertex 2.500000 4.330127 0.000000
      vertex 2.121320 2.121320 0.000000
    endloop
  endfacet
  facet normal -0.000000 -0.000000 -1.000000
    outer loop
      vertex 0.585271 2.942356 0.000000
      vertex -2.500000 4.330127 0.000000
      vertex 1.148050 2.771639 0.000000
    endloop
  endfacet
  facet normal 0.000000 0.000000 -1.000000
    outer loop
      vertex -2.771639 1.148050 0.000000
      vertex -2.500000 4.330127 0.000000
      vertex -2.494409 1.666711 0.000000
    endloop
  endfacet
  facet normal -0.000000 -0.000000 -1.000000
    outer loop
      vertex 0.000000 3.000000 0.000000
      vertex -2.500000 4.330127 0.000000
      vertex 0.585271 2.942356 0.000000
    endloop
  endfacet
  facet normal 0.000000 -0.000000 -1.000000
    outer loop
      vertex -0.585271 2.942356 0.000000
      vertex -2.500000 4.330127 0.000000
      vertex 0.000000 3.000000 0.000000
    endloop
  endfacet
  facet normal 0.000000 -0.000000 -1.000000
    outer loop
      vertex -1.148050 2.771639 0.000000
      vertex -2.500000 4.330127 0.000000
      vertex -0.585271 2.942356 0.000000
    endloop
  endfacet
  facet normal 0.000000 -0.000000 -1.000000
    outer loop
      vertex -1.666711 2.494409 0.000000
      vertex -2.500000 4.330127 0.000000
      vertex -1.148050 2.771639 0.000000
    endloop
  endfacet
  facet normal 0.000000 -0.000000 -1.000000
    outer loop
      vertex -2.121320 2.121320 0.000000
      vertex -2.500000 4.330127 0.000000
      vertex -1.666711 2.494409 0.000000
    endloop
  endfacet
  facet normal 0.000000 -0.000000 -1.000000
    outer loop
      vertex -2.494409 1.666711 0.000000
      vertex -2.500000 4.330127 0.000000
      vertex -2.121320 2.121320 0.000000
    endloop
  endfacet
  facet normal 0.000000 0.000000 -1.000000
    outer loop
      vertex -5.000000 0.000000 0.000000
      vertex -2.500000 4.330127 0.000000
      vertex -2.942356 0.585271 0.000000
    endloop
  endfacet
  facet normal -0.000000 0.000000 -1.000000
    outer loop
      vertex -5.000000 0.000000 0.000000
      vertex -2.942356 0.585271 0.000000
      vertex -3.000000 0.000000 0.000000
    endloop
  endfacet
  facet normal 0.000000 0.000000 -1.000000
    outer loop
      vertex -2.771639 -1.148050 0.000000
      vertex -2.500000 -4.330127 0.000000
      vertex -2.942356 -0.585271 0.000000
    endloop
  endfacet
  facet normal -0.866025 0.500000 0.000000
    outer loop
      vertex -5.000000 0.000000 0.000000
      vertex -5.000000 0.000000 20.000000
      vertex -2.500000 4.330127 0.000000
    endloop
  endfacet
  facet normal -0.866025 0.500000 0.000000
    outer loop
      vertex -2.500000 4.330127 0.000000
      vertex -5.000000 0.000000 20.000000
      vertex -2.500000 4.330127 20.000000
    endloop
  endfacet
  facet normal -0.866025 -0.500000 -0.000000
    outer loop
      vertex -5.000000 0.000000 0.000000
      vertex -2.500000 -4.330127 0.000000
      vertex -5.000000 0.000000 20.000000
    endloop
  endfacet
  facet normal -0.866025 -0.500000 0.000000
    outer loop
      vertex -5.000000 0.000000 20.000000
      vertex -2.500000 -4.330127 0.000000
      vertex -2.500000 -4.330127 20.000000
    endloop
  endfacet
  facet normal 0.000000 -1.000000 0.000000
    outer loop
      vertex -2.500000 -4.330127 20.000000
      vertex -2.500000 -4.330127 0.000000
      vertex 2.500000 -4.330127 0.000000
    endloop
  endfacet
  facet normal 0.000000 -1.000000 0.000000
    outer loop
      vertex 2.500000 -4.330127 20.000000
      vertex -2.500000 -4.330127 20.000000
      vertex 2.500000 -4.330127 0.000000
    endloop
  endfacet
  facet normal 0.866025 -0.500000 0.000000
    outer loop
      vertex 2.500000 -4.330127 20.000000
      vertex 2.500000 -4.330127 0.000000
      vertex 5.000000 0.000000 0.000000
    endloop
  endfacet
  facet normal 0.866025 -0.500000 0.000000
    outer loop
      vertex 5.000000 0.000000 20.000000
      vertex 2.500000 -4.330127 20.000000
      vertex 5.000000 0.000000 0.000000
    endloop
  endfacet
  facet normal 0.866025 0.500000 0.000000
    outer loop
      vertex 5.000000 0.000000 0.000000
      vertex 2.500000 4.330127 0.000000
      vertex 2.500000 4.330127 20.000000
    endloop
  endfacet
  facet normal 0.866025 0.500000 -0.000000
    outer loop
      vertex 5.000000 0.000000 20.000000
      vertex 5.000000 0.000000 0.000000
      vertex 2.500000 4.330127 20.000000
    endloop
  endfacet
  facet normal 0.000000 1.000000 0.000000
    outer loop
      vertex -2.500000 4.330127 0.000000
      vertex -2.500000 4.330127 20.000000
      vertex 2.500000 4.330127 0.000000
    endloop
  endfacet
  facet normal 0.000000 1.000000 0.000000
    outer loop
      vertex 2.500000 4.330127 0.000000
      vertex -2.500000 4.330127 20.000000
      vertex 2.500000 4.330127 20.000000
    endloop
  endfacet
  facet normal 0.995185 0.098017 0.000000
    outer loop
      vertex -3.000000 0.000000 20.000000
      vertex -2.942356 -0.585271 20.000000
      vertex -2.942356 -0.585271 0.000000
    endloop
  endfacet
  facet normal 0.995185 0.098017 0.000000
    outer loop
      vertex -3.000000 0.000000 0.000000
      vertex -3.000000 0.000000 20.000000
      vertex -2.942356 -0.585271 0.000000
    endloop
  endfacet
  facet normal 0.995185 -0.098017 0.000000
    outer loop
      vertex -2.942356 0.585271 0.000000
      vertex -2.942356 0.585271 20.000000
      vertex -3.000000 0.000000 20.000000
    endloop
  endfacet
  facet normal 0.995185 -0.098017 0.000000
    outer loop
      vertex -3.000000 0.000000 0.000000
      vertex -2.942356 0.585271 0.000000
      vertex -3.000000 0.000000 20.000000
    endloop
  endfacet
  facet normal 0.956940 -0.290284 0.000000
    outer loop
      vertex -2.771639 1.148050 0.000000
      vertex -2.771639 1.148050 20.000000
      vertex -2.942356 0.585271 20.000000
    endloop
  endfacet
  facet normal 0.956940 -0.290284 0.000000
    outer loop
      vertex -2.942356 0.585271 0.000000
      vertex -2.771639 1.148050 0.000000
      vertex -2.942356 0.585271 20.000000
    endloop
  endfacet
  facet normal 0.881921 -0.471397 0.000000
    outer loop
      vertex -2.494409 1.666711 0.000000
      vertex -2.494409 1.666711 20.000000
      vertex -2.771639 1.148050 20.000000
    endloop
  endfacet
  facet normal 0.881921 -0.471397 0.000000
    outer loop
      vertex -2.771639 1.148050 0.000000
      vertex -2.494409 1.666711 0.000000
      vertex -2.771639 1.148050 20.000000
    endloop
  endfacet
  facet normal 0.773010 -0.634394 0.000000
    outer loop
      vertex -2.121320 2.121320 0.000000
      vertex -2.121320 2.121320 20.000000
      vertex -2.494409 1.666711 20.000000
    endloop
  endfacet
  facet normal 0.773010 -0.634394 0.000000
    outer loop
      vertex -2.494409 1.666711 0.000000
      vertex -2.121320 2.121320 0.000000
      vertex -2.494409 1.666711 20.000000
    endloop
  endfacet
  facet normal 0.634394 -0.773010 0.000000
    outer loop
      vertex -1.666711 2.494409 0.000000
      vertex -1.666711 2.494409 20.000000
      vertex -2.121320 2.121320 20.000000
    endloop
  endfacet
  facet normal 0.634394 -0.773010 0.000000
    outer loop
      vertex -2.121320 2.121320 0.000000
      vertex -1.666711 2.494409 0.000000
      vertex -2.121320 2.121320 20.000000
    endloop
  endfacet
  facet normal 0.471397 -0.881921 0.000000
    outer loop
      vertex -1.148050 2.771639 0.000000
      vertex -1.148050 2.771639 20.000000
      vertex -1.666711 2.494409 20.000000
    endloop
  endfacet
  facet normal 0.471397 -0.881921 0.000000
    outer loop
      vertex -1.666711 2.494409 0.000000
      vertex -1.148050 2.771639 0.000000
      vertex -1.666711 2.494409 20.000000
    endloop
  endfacet
  facet normal 0.290284 -0.956940 0.000000
    outer loop
      vertex -0.585271 2.942356 0.000000
      vertex -0.585271 2.942356 20.000000
      vertex -1.148050 2.771639 20.000000
    endloop
  endfacet
  facet normal 0.290284 -0.956940 0.000000
    outer loop
      vertex -1.148050 2.771639 0.000000
      vertex -0.585271 2.942356 0.000000
      vertex -1.148050 2.771639 20.000000
    endloop
  endfacet
  facet normal 0.098017 -0.995185 0.000000
    outer loop
      vertex 0.000000 3.000000 0.000000
      vertex 0.000000 3.000000 20.000000
      vertex -0.585271 2.942356 20.000000
    endloop
  endfacet
  facet normal 0.098017 -0.995185 0.000000
    outer loop
      vertex -0.585271 2.942356 0.000000
      vertex 0.000000 3.000000 0.000000
      vertex -0.585271 2.942356 20.000000
    endloop
  endfacet
  facet normal -0.098017 -0.995185 -0.000000
    outer loop
      vertex 0.585271 2.942356 0.000000
      vertex 0.585271 2.942356 20.000000
      vertex 0.000000 3.000000 20.000000
    endloop
  endfacet
  facet normal -0.098017 -0.995185 -0.000000
    outer loop
      vertex 0.000000 3.000000 0.000000
      vertex 0.585271 2.942356 0.000000
      vertex 0.000000 3.000000 20.000000
    endloop
  endfacet
  facet normal -0.290284 -0.956940 -0.000000
    outer loop
      vertex 1.148050 2.771639 0.000000
      vertex 1.148050 2.771639 20.000000
      vertex 0.585271 2.942356 20.000000
    endloop
  endfacet
  facet normal -0.290284 -0.956940 -0.000000
    outer loop
      vertex 0.585271 2.942356 0.000000
      vertex 1.148050 2.771639 0.000000
      vertex 0.585271 2.942356 20.000000
    endloop
  endfacet
  facet normal -0.471397 -0.881921 -0.000000
    outer loop
      vertex 1.666711 2.494409 0.000000
      vertex 1.666711 2.494409 20.000000
      vertex 1.148050 2.771639 20.000000
    endloop
  endfacet
  facet normal -0.471397 -0.881921 -0.000000
    outer loop
      vertex 1.148050 2.771639 0.000000
      vertex 1.666711 2.494409 0.000000
      vertex 1.148050 2.771639 20.000000
    endloop
  endfacet
  facet normal -0.634394 -0.773010 -0.000000
    outer loop
      vertex 2.121320 2.121320 0.000000
      vertex 2.121320 2.121320 20.000000
      vertex 1.666711 2.494409 20.000000
    endloop
  endfacet
  facet normal -0.634394 -0.773010 -0.000000
    outer loop
      vertex 1.666711 2.494409 0.000000
      vertex 2.121320 2.121320 0.000000
      vertex 1.666711 2.494409 20.000000
    endloop
  endfacet
  facet normal -0.773010 -0.634394 0.000000
    outer loop
      vertex 2.494409 1.666711 20.000000
      vertex 2.121320 2.121320 20.000000
      vertex 2.494409 1.666711 0.000000
    endloop
  endfacet
  facet normal -0.773010 -0.634394 0.000000
    outer loop
      vertex 2.494409 1.666711 0.000000
      vertex 2.121320 2.121320 20.000000
      vertex 2.121320 2.121320 0.000000
    endloop
  endfacet
  facet normal -0.881921 -0.471397 0.000000
    outer loop
      vertex 2.771639 1.148050 20.000000
      vertex 2.494409 1.666711 20.000000
      vertex 2.771639 1.148050 0.000000
    endloop
  endfacet
  facet normal -0.881921 -0.471397 0.000000
    outer loop
      vertex 2.771639 1.148050 0.000000
      vertex 2.494409 1.666711 20.000000
      vertex 2.494409 1.666711 0.000000
    endloop
  endfacet
  facet normal -0.956940 -0.290284 0.000000
    outer loop
      vertex 2.942356 0.585271 20.000000
      vertex 2.771639 1.148050 20.000000
      vertex 2.942356 0.585271 0.000000
    endloop
  endfacet
  facet normal -0.956940 -0.290284 0.000000
    outer loop
      vertex 2.942356 0.585271 0.000000
      vertex 2.771639 1.148050 20.000000
      vertex 2.771639 1.148050 0.000000
    endloop
  endfacet
  facet normal -0.995185 -0.098017 0.000000
    outer loop
      vertex 3.000000 0.000000 20.000000
      vertex 2.942356 0.585271 20.000000
      vertex 3.000000 0.000000 0.000000
    endloop
  endfacet
  facet normal -0.995185 -0.098017 0.000000
    outer loop
      vertex 3.000000 0.000000 0.000000
      vertex 2.942356 0.585271 20.000000
      vertex 2.942356 0.585271 0.000000
    endloop
  endfacet
  facet normal -0.995185 0.098017 0.000000
    outer loop
      vertex 3.000000 0.000000 20.000000
      vertex 3.000000 0.000000 0.000000
      vertex 2.942356 -0.585271 20.000000
    endloop
  endfacet
  facet normal -0.995185 0.098017 0.000000
    outer loop
      vertex 2.942356 -0.585271 20.000000
      vertex 3.000000 0.000000 0.000000
      vertex 2.942356 -0.585271 0.000000
    endloop
  endfacet
  facet normal -0.956940 0.290284 0.000000
    outer loop
      vertex 2.942356 -0.585271 20.000000
      vertex 2.942356 -0.585271 0.000000
      vertex 2.771639 -1.148050 20.000000
    endloop
  endfacet
  facet normal -0.956940 0.290284 0.000000
    outer loop
      vertex 2.771639 -1.148050 20.000000
      vertex 2.942356 -0.585271 0.000000
      vertex 2.771639 -1.148050 0.000000
    endloop
  endfacet
  facet normal -0.881921 0.471397 0.000000
    outer loop
      vertex 2.771639 -1.148050 20.000000
      vertex 2.771639 -1.148050 0.000000
      vertex 2.494409 -1.666711 20.000000
    endloop
  endfacet
  facet normal -0.881921 0.471397 0.000000
    outer loop
      vertex 2.494409 -1.666711 20.000000
      vertex 2.771639 -1.148050 0.000000
      vertex 2.494409 -1.666711 0.000000
    endloop
  endfacet
  facet normal -0.773010 0.634394 0.000000
    outer loop
      vertex 2.494409 -1.666711 20.000000
      vertex 2.494409 -1.666711 0.000000
      vertex 2.121320 -2.121320 20.000000
    endloop
  endfacet
  facet normal -0.773010 0.634394 0.000000
    outer loop
      vertex 2.121320 -2.121320 20.000000
      vertex 2.494409 -1.666711 0.000000
      vertex 2.121320 -2.121320 0.000000
    endloop
  endfacet
  facet normal -0.634394 0.773010 0.000000
    outer loop
      vertex 2.121320 -2.121320 20.000000
      vertex 2.121320 -2.121320 0.000000
      vertex 1.666711 -2.494409 20.000000
    endloop
  endfacet
  facet normal -0.634394 0.773010 0.000000
    outer loop
      vertex 1.666711 -2.494409 20.000000
      vertex 2.121320 -2.121320 0.000000
      vertex 1.666711 -2.494409 0.000000
    endloop
  endfacet
  facet normal -0.471397 0.881921 0.000000
    outer loop
      vertex 1.666711 -2.494409 20.000000
      vertex 1.666711 -2.494409 0.000000
      vertex 1.148050 -2.771639 20.000000
    endloop
  endfacet
  facet normal -0.471397 0.881921 0.000000
    outer loop
      vertex 1.148050 -2.771639 20.000000
      vertex 1.666711 -2.494409 0.000000
      vertex 1.148050 -2.771639 0.000000
    endloop
  endfacet
  facet normal -0.290284 0.956940 0.000000
    outer loop
      vertex 1.148050 -2.771639 20.000000
      vertex 1.148050 -2.771639 0.000000
      vertex 0.585271 -2.942356 20.000000
    endloop
  endfacet
  facet normal -0.290284 0.956940 0.000000
    outer loop
      vertex 0.585271 -2.942356 20.000000
      vertex 1.148050 -2.771639 0.000000
      vertex 0.585271 -2.942356 0.000000
    endloop
  endfacet
  facet normal -0.098017 0.995185 0.000000
    outer loop
      vertex 0.585271 -2.942356 20.000000
      vertex 0.585271 -2.942356 0.000000
      vertex 0.000000 -3.000000 20.000000
    endloop
  endfacet
  facet normal -0.098017 0.995185 0.000000
    outer loop
      vertex 0.000000 -3.000000 20.000000
      vertex 0.585271 -2.942356 0.000000
      vertex 0.000000 -3.000000 0.000000
    endloop
  endfacet
  facet normal 0.098017 0.995185 -0.000000
    outer loop
      vertex 0.000000 -3.000000 20.000000
      vertex 0.000000 -3.000000 0.000000
      vertex -0.585271 -2.942356 20.000000
    endloop
  endfacet
  facet normal 0.098017 0.995185 -0.000000
    outer loop
      vertex -0.585271 -2.942356 20.000000
      vertex 0.000000 -3.000000 0.000000
      vertex -0.585271 -2.942356 0.000000
    endloop
  endfacet
  facet normal 0.290284 0.956940 -0.000000
    outer loop
      vertex -0.585271 -2.942356 20.000000
      vertex -0.585271 -2.942356 0.000000
      vertex -1.148050 -2.771639 20.000000
    endloop
  endfacet
  facet normal 0.290284 0.956940 -0.000000
    outer loop
      vertex -1.148050 -2.771639 20.000000
      vertex -0.585271 -2.942356 0.000000
      vertex -1.148050 -2.771639 0.000000
    endloop
  endfacet
  facet normal 0.471397 0.881921 -0.000000
    outer loop
      vertex -1.148050 -2.771639 20.000000
      vertex -1.148050 -2.771639 0.000000
      vertex -1.666711 -2.494409 20.000000
    endloop
  endfacet
  facet normal 0.471397 0.881921 -0.000000
    outer loop
      vertex -1.666711 -2.494409 20.000000
      vertex -1.148050 -2.771639 0.000000
      vertex -1.666711 -2.494409 0.000000
    endloop
  endfacet
  facet normal 0.634394 0.773010 -0.000000
    outer loop
      vertex -1.666711 -2.494409 20.000000
      vertex -1.666711 -2.494409 0.000000
      vertex -2.121320 -2.121320 20.000000
    endloop
  endfacet
  facet normal 0.634394 0.773010 -0.000000
    outer loop
      vertex -2.121320 -2.121320 20.000000
      vertex -1.666711 -2.494409 0.000000
      vertex -2.121320 -2.121320 0.000000
    endloop
  endfacet
  facet normal 0.773010 0.634394 0.000000
    outer loop
      vertex -2.494409 -1.666711 20.000000
      vertex -2.121320 -2.121320 20.000000
      vertex -2.121320 -2.121320 0.000000
    endloop
  endfacet
  facet normal 0.773010 0.634394 0.000000
    outer loop
      vertex -2.494409 -1.666711 0.000000
      vertex -2.494409 -1.666711 20.000000
      vertex -2.121320 -2.121320 0.000000
    endloop
  endfacet
  facet normal 0.881921 0.471397 0.000000
    outer loop
      vertex -2.771639 -1.148050 20.000000
      vertex -2.494409 -1.666711 20.000000
      vertex -2.494409 -1.666711 0.000000
    endloop
  endfacet
  facet normal 0.881921 0.471397 0.000000
    outer loop
      vertex -2.771639 -1.148050 0.000000
      vertex -2.771639 -1.148050 20.000000
      vertex -2.494409 -1.666711 0.000000
    endloop
  endfacet
  facet normal 0.956940 0.290284 0.000000
    outer loop
      vertex -2.942356 -0.585271 20.000000
      vertex -2.771639 -1.148050 20.000000
      vertex -2.771639 -1.148050 0.000000
    endloop
  endfacet
  facet normal 0.956940 0.290284 0.000000
    outer loop
      vertex -2.942356 -0.585271 0.000000
      vertex -2.942356 -0.585271 20.000000
      vertex -2.771639 -1.148050 0.000000
    endloop
  endfacet
  facet normal -0.000000 -0.000000 1.000000
    outer loop
      vertex -2.942356 -0.585271 20.000000
      vertex -5.000000 0.000000 20.000000
      vertex -2.500000 -4.330127 20.000000
    endloop
  endfacet
  facet normal 0.000000 0.000000 1.000000
    outer loop
      vertex 2.771639 1.148050 20.000000
      vertex 2.942356 0.585271 20.000000
      vertex 5.000000 0.000000 20.000000
    endloop
  endfacet
  facet normal -0.000000 -0.000000 1.000000
    outer loop
      vertex -2.771639 -1.148050 20.000000
      vertex -2.942356 -0.585271 20.000000
      vertex -2.500000 -4.330127 20.000000
    endloop
  endfacet
  facet normal 0.000000 -0.000000 1.000000
    outer loop
      vertex -3.000000 0.000000 20.000000
      vertex -5.000000 0.000000 20.000000
      vertex -2.942356 -0.585271 20.000000
    endloop
  endfacet
  facet normal 0.000000 0.000000 1.000000
    outer loop
      vertex -2.771639 1.148050 20.000000
      vertex -2.494409 1.666711 20.000000
      vertex -2.500000 4.330127 20.000000
    endloop
  endfacet
  facet normal 0.000000 0.000000 1.000000
    outer loop
      vertex -2.942356 0.585271 20.000000
      vertex -5.000000 0.000000 20.000000
      vertex -3.000000 0.000000 20.000000
    endloop
  endfacet
  facet normal 0.000000 0.000000 1.000000
    outer loop
      vertex 2.121320 2.121320 20.000000
      vertex 2.494409 1.666711 20.000000
      vertex 5.000000 0.000000 20.000000
    endloop
  endfacet
  facet normal 0.000000 0.000000 1.000000
    outer loop
      vertex -2.500000 4.330127 20.000000
      vertex -5.000000 0.000000 20.000000
      vertex -2.942356 0.585271 20.000000
    endloop
  endfacet
  facet normal 0.000000 0.000000 1.000000
    outer loop
      vertex -1.666711 2.494409 20.000000
      vertex -1.148050 2.771639 20.000000
      vertex -2.500000 4.330127 20.000000
    endloop
  endfacet
  facet normal -0.000000 0.000000 1.000000
    outer loop
      vertex -2.121320 2.121320 20.000000
      vertex -2.500000 4.330127 20.000000
      vertex -2.494409 1.666711 20.000000
    endloop
  endfacet
  facet normal -0.000000 0.000000 1.000000
    outer loop
      vertex -1.666711 2.494409 20.000000
      vertex -2.500000 4.330127 20.000000
      vertex -2.121320 2.121320 20.000000
    endloop
  endfacet
  facet normal -0.000000 0.000000 1.000000
    outer loop
      vertex -2.494409 -1.666711 20.000000
      vertex -2.771639 -1.148050 20.000000
      vertex -2.500000 -4.330127 20.000000
    endloop
  endfacet
  facet normal 0.000000 0.000000 1.000000
    outer loop
      vertex -0.585271 2.942356 20.000000
      vertex 0.000000 3.000000 20.000000
      vertex -2.500000 4.330127 20.000000
    endloop
  endfacet
  facet normal -0.000000 0.000000 1.000000
    outer loop
      vertex -0.585271 2.942356 20.000000
      vertex -2.500000 4.330127 20.000000
      vertex -1.148050 2.771639 20.000000
    endloop
  endfacet
  facet normal 0.000000 0.000000 1.000000
    outer loop
      vertex 2.942356 -0.585271 20.000000
      vertex 2.771639 -1.148050 20.000000
      vertex 2.500000 -4.330127 20.000000
    endloop
  endfacet
  facet normal 0.000000 0.000000 1.000000
    outer loop
      vertex 2.500000 4.330127 20.000000
      vertex -2.500000 4.330127 20.000000
      vertex 0.000000 3.000000 20.000000
    endloop
  endfacet
  facet normal 0.000000 0.000000 1.000000
    outer loop
      vertex 2.500000 4.330127 20.000000
      vertex 0.000000 3.000000 20.000000
      vertex 0.585271 2.942356 20.000000
    endloop
  endfacet
  facet normal 0.000000 0.000000 1.000000
    outer loop
      vertex 2.494409 1.666711 20.000000
      vertex 2.771639 1.148050 20.000000
      vertex 5.000000 0.000000 20.000000
    endloop
  endfacet
  facet normal 0.000000 0.000000 1.000000
    outer loop
      vertex 2.500000 4.330127 20.000000
      vertex 0.585271 2.942356 20.000000
      vertex 1.148050 2.771639 20.000000
    endloop
  endfacet
  facet normal 0.000000 -0.000000 1.000000
    outer loop
      vertex 2.500000 4.330127 20.000000
      vertex 1.666711 2.494409 20.000000
      vertex 5.000000 0.000000 20.000000
    endloop
  endfacet
  facet normal 0.000000 0.000000 1.000000
    outer loop
      vertex 2.500000 4.330127 20.000000
      vertex 1.148050 2.771639 20.000000
      vertex 1.666711 2.494409 20.000000
    endloop
  endfacet
  facet normal 0.000000 0.000000 1.000000
    outer loop
      vertex 1.666711 2.494409 20.000000
      vertex 2.121320 2.121320 20.000000
      vertex 5.000000 0.000000 20.000000
    endloop
  endfacet
  facet normal -0.000000 0.000000 1.000000
    outer loop
      vertex 5.000000 0.000000 20.000000
      vertex 2.942356 0.585271 20.000000
      vertex 3.000000 0.000000 20.000000
    endloop
  endfacet
  facet normal 0.000000 0.000000 1.000000
    outer loop
      vertex 5.000000 0.000000 20.000000
      vertex 2.942356 -0.585271 20.000000
      vertex 2.500000 -4.330127 20.000000
    endloop
  endfacet
  facet normal 0.000000 0.000000 1.000000
    outer loop
      vertex 5.000000 0.000000 20.000000
      vertex 3.000000 0.000000 20.000000
      vertex 2.942356 -0.585271 20.000000
    endloop
  endfacet
  facet normal 0.000000 0.000000 1.000000
    outer loop
      vertex 2.771639 -1.148050 20.000000
      vertex 2.494409 -1.666711 20.000000
      vertex 2.500000 -4.330127 20.000000
    endloop
  endfacet
  facet normal 0.000000 -0.000000 1.000000
    outer loop
      vertex 2.494409 -1.666711 20.000000
      vertex 2.121320 -2.121320 20.000000
      vertex 2.500000 -4.330127 20.000000
    endloop
  endfacet
  facet normal 0.000000 -0.000000 1.000000
    outer loop
      vertex 2.121320 -2.121320 20.000000
      vertex 1.666711 -2.494409 20.000000
      vertex 2.500000 -4.330127 20.000000
    endloop
  endfacet
  facet normal -0.000000 0.000000 1.000000
    outer loop
      vertex 2.500000 -4.330127 20.000000
      vertex 1.148050 -2.771639 20.000000
      vertex -2.500000 -4.330127 20.000000
    endloop
  endfacet
  facet normal 0.000000 0.000000 1.000000
    outer loop
      vertex 1.148050 -2.771639 20.000000
      vertex 0.585271 -2.942356 20.000000
      vertex -2.500000 -4.330127 20.000000
    endloop
  endfacet
  facet normal 0.000000 0.000000 1.000000
    outer loop
      vertex 0.585271 -2.942356 20.000000
      vertex 0.000000 -3.000000 20.000000
      vertex -2.500000 -4.330127 20.000000
    endloop
  endfacet
  facet normal -0.000000 0.000000 1.000000
    outer loop
      vertex 0.000000 -3.000000 20.000000
      vertex -0.585271 -2.942356 20.000000
      vertex -2.500000 -4.330127 20.000000
    endloop
  endfacet
  facet normal -0.000000 0.000000 1.000000
    outer loop
      vertex -0.585271 -2.942356 20.000000
      vertex -1.148050 -2.771639 20.000000
      vertex -2.500000 -4.330127 20.000000
    endloop
  endfacet
  facet normal -0.000000 0.000000 1.000000
    outer loop
      vertex -1.148050 -2.771639 20.000000
      vertex -1.666711 -2.494409 20.000000
      vertex -2.500000 -4.330127 20.000000
    endloop
  endfacet
  facet normal -0.000000 0.000000 1.000000
    outer loop
      vertex -1.666711 -2.494409 20.000000
      vertex -2.121320 -2.121320 20.000000
      vertex -2.500000 -4.330127 20.000000
    endloop
  endfacet
  facet normal -0.000000 0.000000 1.000000
    outer loop
      vertex -2.121320 -2.121320 20.000000
      vertex -2.494409 -1.666711 20.000000
      vertex -2.500000 -4.330127 20.000000
    endloop
  endfacet
  facet normal 0.000000 0.000000 1.000000
    outer loop
      vertex -2.942356 0.585271 20.000000
      vertex -2.771639 1.148050 20.000000
      vertex -2.500000 4.330127 20.000000
    endloop
  endfacet
  facet normal 0.000000 -0.000000 1.000000
    outer loop
      vertex 1.666711 -2.494409 20.000000
      vertex 1.148050 -2.771639 20.000000
      vertex 2.500000 -4.330127 20.000000
    endloop
  endfacet
endsolid OpenSCAD_Model
