ISO-10303-21;
HEADER;
FILE_DESCRIPTION(('FreeCAD Model'),'2;1');
FILE_NAME(
  '/home/andy/Published/PrintableParts/Picroscope/illuminator.step',
  '2020-05-23T14:07:06',('Author'),(''),
  'Open CASCADE STEP processor 7.3','FreeCAD','Unknown');
FILE_SCHEMA(('AUTOMOTIVE_DESIGN { 1 0 10303 214 1 1 1 1 }'));
ENDSEC;
DATA;
#1 = APPLICATION_PROTOCOL_DEFINITION('international standard',
  'automotive_design',2000,#2);
#2 = APPLICATION_CONTEXT(
  'core data for automotive mechanical design processes');
#3 = SHAPE_DEFINITION_REPRESENTATION(#4,#10);
#4 = PRODUCT_DEFINITION_SHAPE('','',#5);
#5 = PRODUCT_DEFINITION('design','',#6,#9);
#6 = PRODUCT_DEFINITION_FORMATION('','',#7);
#7 = PRODUCT('CablePort','CablePort','',(#8));
#8 = PRODUCT_CONTEXT('',#2,'mechanical');
#9 = PRODUCT_DEFINITION_CONTEXT('part definition',#2,'design');
#10 = ADVANCED_BREP_SHAPE_REPRESENTATION('',(#11,#15),#1501);
#11 = AXIS2_PLACEMENT_3D('',#12,#13,#14);
#12 = CARTESIAN_POINT('',(0.,0.,0.));
#13 = DIRECTION('',(0.,0.,1.));
#14 = DIRECTION('',(1.,0.,-0.));
#15 = MANIFOLD_SOLID_BREP('',#16);
#16 = CLOSED_SHELL('',(#17,#222,#444,#570,#678,#703,#758,#793,#876,#972,
    #999,#1024,#1051,#1122,#1177,#1205,#1244,#1299,#1354,#1409,#1444,
    #1474));
#17 = ADVANCED_FACE('',(#18),#51,.T.);
#18 = FACE_BOUND('',#19,.T.);
#19 = EDGE_LOOP('',(#20,#141,#169,#198));
#20 = ORIENTED_EDGE('',*,*,#21,.F.);
#21 = EDGE_CURVE('',#22,#24,#26,.T.);
#22 = VERTEX_POINT('',#23);
#23 = CARTESIAN_POINT('',(38.5,2.22044604925E-15,10.));
#24 = VERTEX_POINT('',#25);
#25 = CARTESIAN_POINT('',(-38.47076868359,-1.5,10.));
#26 = SURFACE_CURVE('',#27,(#50,#89),.PCURVE_S1.);
#27 = B_SPLINE_CURVE_WITH_KNOTS('',11,(#28,#29,#30,#31,#32,#33,#34,#35,
    #36,#37,#38,#39,#40,#41,#42,#43,#44,#45,#46,#47,#48,#49),
  .UNSPECIFIED.,.T.,.F.,(12,10,12),(4.78E-15,120.9513171632,
    241.90263432641),.UNSPECIFIED.);
#28 = CARTESIAN_POINT('',(38.5,2.22044604925E-15,10.));
#29 = CARTESIAN_POINT('',(38.500000000002,-10.83651556956,
    10.000000000002));
#30 = CARTESIAN_POINT('',(35.144781287968,-21.82114529123,9.999999999994
    ));
#31 = CARTESIAN_POINT('',(28.282271188548,-31.71734368634,
    10.000000000015));
#32 = CARTESIAN_POINT('',(18.326627063001,-39.19661084653,9.999999999974
    ));
#33 = CARTESIAN_POINT('',(6.322272176237,-43.15075470784,10.000000000032
    ));
#34 = CARTESIAN_POINT('',(-6.31847073058,-43.13336896987,9.99999999997)
  );
#35 = CARTESIAN_POINT('',(-18.24960324182,-39.16014040068,
    10.000000000021));
#36 = CARTESIAN_POINT('',(-28.13627906593,-31.78057421025,9.999999999989
    ));
#37 = CARTESIAN_POINT('',(-35.04573269639,-21.99120597825,
    10.000000000004));
#38 = CARTESIAN_POINT('',(-38.5,-10.99557428756,9.999999999999));
#39 = CARTESIAN_POINT('',(-38.5,10.995574287565,10.));
#40 = CARTESIAN_POINT('',(-35.04573269639,21.99120597824,9.999999999999)
  );
#41 = CARTESIAN_POINT('',(-28.13627906593,31.780574210296,
    10.000000000002));
#42 = CARTESIAN_POINT('',(-18.24960324183,39.160140400599,9.999999999998
    ));
#43 = CARTESIAN_POINT('',(-6.318470730572,43.133368969988,
    10.000000000002));
#44 = CARTESIAN_POINT('',(6.322272176228,43.150754707717,9.999999999999)
  );
#45 = CARTESIAN_POINT('',(18.326627063009,39.19661084663,10.));
#46 = CARTESIAN_POINT('',(28.282271188543,31.717343686285,10.));
#47 = CARTESIAN_POINT('',(35.14478128797,21.821145291258,10.));
#48 = CARTESIAN_POINT('',(38.500000000001,10.836515569553,10.));
#49 = CARTESIAN_POINT('',(38.5,1.165044604925E-14,10.));
#50 = PCURVE('',#51,#56);
#51 = CYLINDRICAL_SURFACE('',#52,38.5);
#52 = AXIS2_PLACEMENT_3D('',#53,#54,#55);
#53 = CARTESIAN_POINT('',(0.,3.330669073875E-15,15.));
#54 = DIRECTION('',(-0.,-2.22044604925E-16,-1.));
#55 = DIRECTION('',(1.,0.,0.));
#56 = DEFINITIONAL_REPRESENTATION('',(#57),#88);
#57 = B_SPLINE_CURVE_WITH_KNOTS('',8,(#58,#59,#60,#61,#62,#63,#64,#65,
    #66,#67,#68,#69,#70,#71,#72,#73,#74,#75,#76,#77,#78,#79,#80,#81,#82,
    #83,#84,#85,#86,#87),.UNSPECIFIED.,.F.,.F.,(9,7,7,7,9),(4.78E-15,
    60.475658581604,120.9513171632,181.42697574481,241.90263432641),
  .UNSPECIFIED.);
#58 = CARTESIAN_POINT('',(1.1E-16,5.));
#59 = CARTESIAN_POINT('',(0.193509206599,5.));
#60 = CARTESIAN_POINT('',(0.388906977383,4.999999999999));
#61 = CARTESIAN_POINT('',(0.585411759041,5.000000000001));
#62 = CARTESIAN_POINT('',(0.782408693497,5.));
#63 = CARTESIAN_POINT('',(0.979488506437,5.));
#64 = CARTESIAN_POINT('',(1.176493675537,5.));
#65 = CARTESIAN_POINT('',(1.373354958825,5.));
#66 = CARTESIAN_POINT('',(1.766799218076,5.));
#67 = CARTESIAN_POINT('',(1.963381866489,5.));
#68 = CARTESIAN_POINT('',(2.159825999306,5.));
#69 = CARTESIAN_POINT('',(2.356195021441,5.));
#70 = CARTESIAN_POINT('',(2.552543644684,5.));
#71 = CARTESIAN_POINT('',(2.748893739477,5.));
#72 = CARTESIAN_POINT('',(2.94524305023,5.));
#73 = CARTESIAN_POINT('',(3.33794225695,5.));
#74 = CARTESIAN_POINT('',(3.534291567702,5.));
#75 = CARTESIAN_POINT('',(3.730641662495,5.));
#76 = CARTESIAN_POINT('',(3.926990285739,5.));
#77 = CARTESIAN_POINT('',(4.123359307874,5.));
#78 = CARTESIAN_POINT('',(4.319803440691,5.));
#79 = CARTESIAN_POINT('',(4.516386089103,5.));
#80 = CARTESIAN_POINT('',(4.909830348354,5.));
#81 = CARTESIAN_POINT('',(5.106691631643,5.));
#82 = CARTESIAN_POINT('',(5.303696800743,5.));
#83 = CARTESIAN_POINT('',(5.500776613683,5.));
#84 = CARTESIAN_POINT('',(5.697773548139,5.));
#85 = CARTESIAN_POINT('',(5.894278329797,5.));
#86 = CARTESIAN_POINT('',(6.08967610058,5.));
#87 = CARTESIAN_POINT('',(6.28318530718,5.));
#88 = ( GEOMETRIC_REPRESENTATION_CONTEXT(2) 
PARAMETRIC_REPRESENTATION_CONTEXT() REPRESENTATION_CONTEXT('2D SPACE',''
  ) );
#89 = PCURVE('',#90,#135);
#90 = B_SPLINE_SURFACE_WITH_KNOTS('',1,11,(
    (#91,#92,#93,#94,#95,#96,#97,#98,#99,#100,#101,#102,#103,#104,#105
      ,#106,#107,#108,#109,#110,#111,#112)
    ,(#113,#114,#115,#116,#117,#118,#119,#120,#121,#122,#123,#124,#125
      ,#126,#127,#128,#129,#130,#131,#132,#133,#134
  )),.UNSPECIFIED.,.F.,.T.,.F.,(2,2),(12,10,12),(0.,241.90263432641),(
    4.78E-15,120.9513171632,241.90263432641),.UNSPECIFIED.);
#91 = CARTESIAN_POINT('',(38.5,2.22044604925E-15,10.));
#92 = CARTESIAN_POINT('',(38.500000000002,-10.83651556956,
    10.000000000002));
#93 = CARTESIAN_POINT('',(35.144781287968,-21.82114529123,9.999999999994
    ));
#94 = CARTESIAN_POINT('',(28.282271188548,-31.71734368634,
    10.000000000015));
#95 = CARTESIAN_POINT('',(18.326627063001,-39.19661084653,9.999999999974
    ));
#96 = CARTESIAN_POINT('',(6.322272176237,-43.15075470784,10.000000000032
    ));
#97 = CARTESIAN_POINT('',(-6.31847073058,-43.13336896987,9.99999999997)
  );
#98 = CARTESIAN_POINT('',(-18.24960324182,-39.16014040068,
    10.000000000021));
#99 = CARTESIAN_POINT('',(-28.13627906593,-31.78057421025,9.999999999989
    ));
#100 = CARTESIAN_POINT('',(-35.04573269639,-21.99120597825,
    10.000000000004));
#101 = CARTESIAN_POINT('',(-38.5,-10.99557428756,9.999999999999));
#102 = CARTESIAN_POINT('',(-38.5,10.995574287565,10.));
#103 = CARTESIAN_POINT('',(-35.04573269639,21.99120597824,9.999999999999
    ));
#104 = CARTESIAN_POINT('',(-28.13627906593,31.780574210296,
    10.000000000002));
#105 = CARTESIAN_POINT('',(-18.24960324183,39.160140400599,
    9.999999999998));
#106 = CARTESIAN_POINT('',(-6.318470730572,43.133368969988,
    10.000000000002));
#107 = CARTESIAN_POINT('',(6.322272176228,43.150754707717,9.999999999999
    ));
#108 = CARTESIAN_POINT('',(18.326627063009,39.19661084663,10.));
#109 = CARTESIAN_POINT('',(28.282271188543,31.717343686285,10.));
#110 = CARTESIAN_POINT('',(35.14478128797,21.821145291258,10.));
#111 = CARTESIAN_POINT('',(38.500000000001,10.836515569553,10.));
#112 = CARTESIAN_POINT('',(38.5,1.165044604925E-14,10.));
#113 = CARTESIAN_POINT('',(28.5,0.,0.));
#114 = CARTESIAN_POINT('',(28.500000000001,-8.021836200842,
    1.781205449989E-15));
#115 = CARTESIAN_POINT('',(26.016266667716,-16.15331534546,
    3.586756524112E-15));
#116 = CARTESIAN_POINT('',(20.936226723991,-23.47907259897,
    5.213401399246E-15));
#117 = CARTESIAN_POINT('',(13.566464189492,-29.01567296432,
    6.442773639998E-15));
#118 = CARTESIAN_POINT('',(4.680123559036,-31.94276647202,
    7.092718961493E-15));
#119 = CARTESIAN_POINT('',(-4.677309501862,-31.92989651017,
    7.089861255899E-15));
#120 = CARTESIAN_POINT('',(-13.50944655563,-28.98867536153,
    6.436778967952E-15));
#121 = CARTESIAN_POINT('',(-20.82815463323,-23.52587961019,
    5.223794643559E-15));
#122 = CARTESIAN_POINT('',(-25.94294498304,-16.27920442546,
    3.614709515145E-15));
#123 = CARTESIAN_POINT('',(-28.5,-8.139580966118,1.807350039877E-15));
#124 = CARTESIAN_POINT('',(-28.5,8.139580966119,-1.807350039877E-15));
#125 = CARTESIAN_POINT('',(-25.94294498304,16.279204425455,
    -3.614709515144E-15));
#126 = CARTESIAN_POINT('',(-20.82815463322,23.525879610207,
    -5.223794643562E-15));
#127 = CARTESIAN_POINT('',(-13.50944655564,28.988675361506,
    -6.436778967946E-15));
#128 = CARTESIAN_POINT('',(-4.677309501843,31.929896510218,
    -7.089861255908E-15));
#129 = CARTESIAN_POINT('',(4.680123559015,31.94276647198,
    -7.092718961483E-15));
#130 = CARTESIAN_POINT('',(13.56646418951,29.015672964362,
    -6.442773640006E-15));
#131 = CARTESIAN_POINT('',(20.93622672398,23.479072598954,
    -5.213401399241E-15));
#132 = CARTESIAN_POINT('',(26.016266667721,16.153315345471,
    -3.586756524115E-15));
#133 = CARTESIAN_POINT('',(28.500000000001,8.021836200839,
    -1.781205449989E-15));
#134 = CARTESIAN_POINT('',(28.5,0.,0.));
#135 = DEFINITIONAL_REPRESENTATION('',(#136),#140);
#136 = LINE('',#137,#138);
#137 = CARTESIAN_POINT('',(0.,0.));
#138 = VECTOR('',#139,1.);
#139 = DIRECTION('',(0.,1.));
#140 = ( GEOMETRIC_REPRESENTATION_CONTEXT(2) 
PARAMETRIC_REPRESENTATION_CONTEXT() REPRESENTATION_CONTEXT('2D SPACE',''
  ) );
#141 = ORIENTED_EDGE('',*,*,#142,.F.);
#142 = EDGE_CURVE('',#143,#22,#145,.T.);
#143 = VERTEX_POINT('',#144);
#144 = CARTESIAN_POINT('',(38.5,3.306690738755E-16,15.));
#145 = SURFACE_CURVE('',#146,(#150,#157),.PCURVE_S1.);
#146 = LINE('',#147,#148);
#147 = CARTESIAN_POINT('',(38.5,3.330669073875E-15,15.));
#148 = VECTOR('',#149,1.);
#149 = DIRECTION('',(0.,-2.22044604925E-16,-1.));
#150 = PCURVE('',#51,#151);
#151 = DEFINITIONAL_REPRESENTATION('',(#152),#156);
#152 = LINE('',#153,#154);
#153 = CARTESIAN_POINT('',(0.,0.));
#154 = VECTOR('',#155,1.);
#155 = DIRECTION('',(0.,1.));
#156 = ( GEOMETRIC_REPRESENTATION_CONTEXT(2) 
PARAMETRIC_REPRESENTATION_CONTEXT() REPRESENTATION_CONTEXT('2D SPACE',''
  ) );
#157 = PCURVE('',#158,#163);
#158 = CYLINDRICAL_SURFACE('',#159,38.5);
#159 = AXIS2_PLACEMENT_3D('',#160,#161,#162);
#160 = CARTESIAN_POINT('',(0.,3.330669073875E-15,15.));
#161 = DIRECTION('',(-0.,-2.22044604925E-16,-1.));
#162 = DIRECTION('',(1.,0.,0.));
#163 = DEFINITIONAL_REPRESENTATION('',(#164),#168);
#164 = LINE('',#165,#166);
#165 = CARTESIAN_POINT('',(6.28318530718,0.));
#166 = VECTOR('',#167,1.);
#167 = DIRECTION('',(0.,1.));
#168 = ( GEOMETRIC_REPRESENTATION_CONTEXT(2) 
PARAMETRIC_REPRESENTATION_CONTEXT() REPRESENTATION_CONTEXT('2D SPACE',''
  ) );
#169 = ORIENTED_EDGE('',*,*,#170,.T.);
#170 = EDGE_CURVE('',#143,#171,#173,.T.);
#171 = VERTEX_POINT('',#172);
#172 = CARTESIAN_POINT('',(-38.47076812334,-1.500000000001,15.));
#173 = SURFACE_CURVE('',#174,(#179,#186),.PCURVE_S1.);
#174 = CIRCLE('',#175,38.5);
#175 = AXIS2_PLACEMENT_3D('',#176,#177,#178);
#176 = CARTESIAN_POINT('',(0.,3.330669073875E-15,15.));
#177 = DIRECTION('',(0.,-2.22044604925E-16,-1.));
#178 = DIRECTION('',(1.,0.,0.));
#179 = PCURVE('',#51,#180);
#180 = DEFINITIONAL_REPRESENTATION('',(#181),#185);
#181 = LINE('',#182,#183);
#182 = CARTESIAN_POINT('',(0.,0.));
#183 = VECTOR('',#184,1.);
#184 = DIRECTION('',(1.,0.));
#185 = ( GEOMETRIC_REPRESENTATION_CONTEXT(2) 
PARAMETRIC_REPRESENTATION_CONTEXT() REPRESENTATION_CONTEXT('2D SPACE',''
  ) );
#186 = PCURVE('',#187,#192);
#187 = PLANE('',#188);
#188 = AXIS2_PLACEMENT_3D('',#189,#190,#191);
#189 = CARTESIAN_POINT('',(0.,3.330669073875E-15,15.));
#190 = DIRECTION('',(-0.,-2.22044604925E-16,-1.));
#191 = DIRECTION('',(1.,0.,0.));
#192 = DEFINITIONAL_REPRESENTATION('',(#193),#197);
#193 = CIRCLE('',#194,38.5);
#194 = AXIS2_PLACEMENT_2D('',#195,#196);
#195 = CARTESIAN_POINT('',(0.,0.));
#196 = DIRECTION('',(1.,-0.));
#197 = ( GEOMETRIC_REPRESENTATION_CONTEXT(2) 
PARAMETRIC_REPRESENTATION_CONTEXT() REPRESENTATION_CONTEXT('2D SPACE',''
  ) );
#198 = ORIENTED_EDGE('',*,*,#199,.T.);
#199 = EDGE_CURVE('',#171,#24,#200,.T.);
#200 = SURFACE_CURVE('',#201,(#205,#211),.PCURVE_S1.);
#201 = LINE('',#202,#203);
#202 = CARTESIAN_POINT('',(-38.47076812334,-1.5,15.));
#203 = VECTOR('',#204,1.);
#204 = DIRECTION('',(-0.,-2.22044604925E-16,-1.));
#205 = PCURVE('',#51,#206);
#206 = DEFINITIONAL_REPRESENTATION('',(#207),#210);
#207 = B_SPLINE_CURVE_WITH_KNOTS('',1,(#208,#209),.UNSPECIFIED.,.F.,.F.,
  (2,2),(-5.9999999991E-07,5.000000600001),.PIECEWISE_BEZIER_KNOTS.);
#208 = CARTESIAN_POINT('',(3.10262175099,-5.9999999991E-07));
#209 = CARTESIAN_POINT('',(3.10262175099,5.000000600001));
#210 = ( GEOMETRIC_REPRESENTATION_CONTEXT(2) 
PARAMETRIC_REPRESENTATION_CONTEXT() REPRESENTATION_CONTEXT('2D SPACE',''
  ) );
#211 = PCURVE('',#212,#217);
#212 = PLANE('',#213);
#213 = AXIS2_PLACEMENT_3D('',#214,#215,#216);
#214 = CARTESIAN_POINT('',(-32.,-1.5,15.));
#215 = DIRECTION('',(-0.,1.,-2.22044604925E-16));
#216 = DIRECTION('',(-1.,0.,0.));
#217 = DEFINITIONAL_REPRESENTATION('',(#218),#221);
#218 = B_SPLINE_CURVE_WITH_KNOTS('',1,(#219,#220),.UNSPECIFIED.,.F.,.F.,
  (2,2),(-5.9999999991E-07,5.000000600001),.PIECEWISE_BEZIER_KNOTS.);
#219 = CARTESIAN_POINT('',(6.470768123343,5.9999999991E-07));
#220 = CARTESIAN_POINT('',(6.470768123343,-5.000000600001));
#221 = ( GEOMETRIC_REPRESENTATION_CONTEXT(2) 
PARAMETRIC_REPRESENTATION_CONTEXT() REPRESENTATION_CONTEXT('2D SPACE',''
  ) );
#222 = ADVANCED_FACE('',(#223),#90,.F.);
#223 = FACE_BOUND('',#224,.F.);
#224 = EDGE_LOOP('',(#225,#226,#246,#310,#311,#380));
#225 = ORIENTED_EDGE('',*,*,#21,.F.);
#226 = ORIENTED_EDGE('',*,*,#227,.T.);
#227 = EDGE_CURVE('',#22,#228,#230,.T.);
#228 = VERTEX_POINT('',#229);
#229 = CARTESIAN_POINT('',(28.5,0.,0.));
#230 = SEAM_CURVE('',#231,(#234,#240),.PCURVE_S1.);
#231 = B_SPLINE_CURVE_WITH_KNOTS('',1,(#232,#233),.UNSPECIFIED.,.F.,.F.,
  (2,2),(0.,241.90263432641),.PIECEWISE_BEZIER_KNOTS.);
#232 = CARTESIAN_POINT('',(38.5,2.22044604925E-15,10.));
#233 = CARTESIAN_POINT('',(28.5,0.,0.));
#234 = PCURVE('',#90,#235);
#235 = DEFINITIONAL_REPRESENTATION('',(#236),#239);
#236 = B_SPLINE_CURVE_WITH_KNOTS('',1,(#237,#238),.UNSPECIFIED.,.F.,.F.,
  (2,2),(0.,241.90263432641),.PIECEWISE_BEZIER_KNOTS.);
#237 = CARTESIAN_POINT('',(0.,241.90263432641));
#238 = CARTESIAN_POINT('',(241.90263432641,241.90263432641));
#239 = ( GEOMETRIC_REPRESENTATION_CONTEXT(2) 
PARAMETRIC_REPRESENTATION_CONTEXT() REPRESENTATION_CONTEXT('2D SPACE',''
  ) );
#240 = PCURVE('',#90,#241);
#241 = DEFINITIONAL_REPRESENTATION('',(#242),#245);
#242 = B_SPLINE_CURVE_WITH_KNOTS('',1,(#243,#244),.UNSPECIFIED.,.F.,.F.,
  (2,2),(0.,241.90263432641),.PIECEWISE_BEZIER_KNOTS.);
#243 = CARTESIAN_POINT('',(0.,4.78E-15));
#244 = CARTESIAN_POINT('',(241.90263432641,4.78E-15));
#245 = ( GEOMETRIC_REPRESENTATION_CONTEXT(2) 
PARAMETRIC_REPRESENTATION_CONTEXT() REPRESENTATION_CONTEXT('2D SPACE',''
  ) );
#246 = ORIENTED_EDGE('',*,*,#247,.T.);
#247 = EDGE_CURVE('',#228,#228,#248,.T.);
#248 = SURFACE_CURVE('',#249,(#272,#279),.PCURVE_S1.);
#249 = B_SPLINE_CURVE_WITH_KNOTS('',11,(#250,#251,#252,#253,#254,#255,
    #256,#257,#258,#259,#260,#261,#262,#263,#264,#265,#266,#267,#268,
    #269,#270,#271),.UNSPECIFIED.,.T.,.F.,(12,10,12),(4.78E-15,
    120.9513171632,241.90263432641),.UNSPECIFIED.);
#250 = CARTESIAN_POINT('',(28.5,0.,0.));
#251 = CARTESIAN_POINT('',(28.500000000001,-8.021836200842,
    1.781205449989E-15));
#252 = CARTESIAN_POINT('',(26.016266667716,-16.15331534546,
    3.586756524112E-15));
#253 = CARTESIAN_POINT('',(20.936226723991,-23.47907259897,
    5.213401399246E-15));
#254 = CARTESIAN_POINT('',(13.566464189492,-29.01567296432,
    6.442773639998E-15));
#255 = CARTESIAN_POINT('',(4.680123559036,-31.94276647202,
    7.092718961493E-15));
#256 = CARTESIAN_POINT('',(-4.677309501862,-31.92989651017,
    7.089861255899E-15));
#257 = CARTESIAN_POINT('',(-13.50944655563,-28.98867536153,
    6.436778967952E-15));
#258 = CARTESIAN_POINT('',(-20.82815463323,-23.52587961019,
    5.223794643559E-15));
#259 = CARTESIAN_POINT('',(-25.94294498304,-16.27920442546,
    3.614709515145E-15));
#260 = CARTESIAN_POINT('',(-28.5,-8.139580966118,1.807350039877E-15));
#261 = CARTESIAN_POINT('',(-28.5,8.139580966119,-1.807350039877E-15));
#262 = CARTESIAN_POINT('',(-25.94294498304,16.279204425455,
    -3.614709515144E-15));
#263 = CARTESIAN_POINT('',(-20.82815463322,23.525879610207,
    -5.223794643562E-15));
#264 = CARTESIAN_POINT('',(-13.50944655564,28.988675361506,
    -6.436778967946E-15));
#265 = CARTESIAN_POINT('',(-4.677309501843,31.929896510218,
    -7.089861255908E-15));
#266 = CARTESIAN_POINT('',(4.680123559015,31.94276647198,
    -7.092718961483E-15));
#267 = CARTESIAN_POINT('',(13.56646418951,29.015672964362,
    -6.442773640006E-15));
#268 = CARTESIAN_POINT('',(20.93622672398,23.479072598954,
    -5.213401399241E-15));
#269 = CARTESIAN_POINT('',(26.016266667721,16.153315345471,
    -3.586756524115E-15));
#270 = CARTESIAN_POINT('',(28.500000000001,8.021836200839,
    -1.781205449989E-15));
#271 = CARTESIAN_POINT('',(28.5,0.,0.));
#272 = PCURVE('',#90,#273);
#273 = DEFINITIONAL_REPRESENTATION('',(#274),#278);
#274 = LINE('',#275,#276);
#275 = CARTESIAN_POINT('',(241.90263432641,0.));
#276 = VECTOR('',#277,1.);
#277 = DIRECTION('',(0.,1.));
#278 = ( GEOMETRIC_REPRESENTATION_CONTEXT(2) 
PARAMETRIC_REPRESENTATION_CONTEXT() REPRESENTATION_CONTEXT('2D SPACE',''
  ) );
#279 = PCURVE('',#280,#285);
#280 = PLANE('',#281);
#281 = AXIS2_PLACEMENT_3D('',#282,#283,#284);
#282 = CARTESIAN_POINT('',(0.,0.,0.));
#283 = DIRECTION('',(-0.,-2.22044604925E-16,-1.));
#284 = DIRECTION('',(1.,0.,0.));
#285 = DEFINITIONAL_REPRESENTATION('',(#286),#309);
#286 = B_SPLINE_CURVE_WITH_KNOTS('',11,(#287,#288,#289,#290,#291,#292,
    #293,#294,#295,#296,#297,#298,#299,#300,#301,#302,#303,#304,#305,
    #306,#307,#308),.UNSPECIFIED.,.F.,.F.,(12,10,12),(4.78E-15,
    120.9513171632,241.90263432641),.UNSPECIFIED.);
#287 = CARTESIAN_POINT('',(28.5,-1.421E-14));
#288 = CARTESIAN_POINT('',(28.500000000001,8.021836200842));
#289 = CARTESIAN_POINT('',(26.016266667716,16.153315345461));
#290 = CARTESIAN_POINT('',(20.936226723991,23.479072598976));
#291 = CARTESIAN_POINT('',(13.566464189492,29.015672964326));
#292 = CARTESIAN_POINT('',(4.680123559036,31.942766472024));
#293 = CARTESIAN_POINT('',(-4.677309501862,31.929896510177));
#294 = CARTESIAN_POINT('',(-13.50944655563,28.988675361536));
#295 = CARTESIAN_POINT('',(-20.82815463323,23.52587961019));
#296 = CARTESIAN_POINT('',(-25.94294498304,16.279204425461));
#297 = CARTESIAN_POINT('',(-28.5,8.139580966118));
#298 = CARTESIAN_POINT('',(-28.5,-8.139580966119));
#299 = CARTESIAN_POINT('',(-25.94294498304,-16.27920442545));
#300 = CARTESIAN_POINT('',(-20.82815463322,-23.5258796102));
#301 = CARTESIAN_POINT('',(-13.50944655564,-28.9886753615));
#302 = CARTESIAN_POINT('',(-4.677309501843,-31.92989651021));
#303 = CARTESIAN_POINT('',(4.680123559015,-31.94276647198));
#304 = CARTESIAN_POINT('',(13.56646418951,-29.01567296436));
#305 = CARTESIAN_POINT('',(20.93622672398,-23.47907259895));
#306 = CARTESIAN_POINT('',(26.016266667721,-16.15331534547));
#307 = CARTESIAN_POINT('',(28.500000000001,-8.021836200839));
#308 = CARTESIAN_POINT('',(28.5,7.278E-14));
#309 = ( GEOMETRIC_REPRESENTATION_CONTEXT(2) 
PARAMETRIC_REPRESENTATION_CONTEXT() REPRESENTATION_CONTEXT('2D SPACE',''
  ) );
#310 = ORIENTED_EDGE('',*,*,#227,.F.);
#311 = ORIENTED_EDGE('',*,*,#312,.F.);
#312 = EDGE_CURVE('',#313,#22,#315,.T.);
#313 = VERTEX_POINT('',#314);
#314 = CARTESIAN_POINT('',(-38.47076868359,1.5,10.));
#315 = SURFACE_CURVE('',#316,(#339,#346),.PCURVE_S1.);
#316 = B_SPLINE_CURVE_WITH_KNOTS('',11,(#317,#318,#319,#320,#321,#322,
    #323,#324,#325,#326,#327,#328,#329,#330,#331,#332,#333,#334,#335,
    #336,#337,#338),.UNSPECIFIED.,.T.,.F.,(12,10,12),(4.78E-15,
    120.9513171632,241.90263432641),.UNSPECIFIED.);
#317 = CARTESIAN_POINT('',(38.5,2.22044604925E-15,10.));
#318 = CARTESIAN_POINT('',(38.500000000002,-10.83651556956,
    10.000000000002));
#319 = CARTESIAN_POINT('',(35.144781287968,-21.82114529123,
    9.999999999994));
#320 = CARTESIAN_POINT('',(28.282271188548,-31.71734368634,
    10.000000000015));
#321 = CARTESIAN_POINT('',(18.326627063001,-39.19661084653,
    9.999999999974));
#322 = CARTESIAN_POINT('',(6.322272176237,-43.15075470784,
    10.000000000032));
#323 = CARTESIAN_POINT('',(-6.31847073058,-43.13336896987,9.99999999997)
  );
#324 = CARTESIAN_POINT('',(-18.24960324182,-39.16014040068,
    10.000000000021));
#325 = CARTESIAN_POINT('',(-28.13627906593,-31.78057421025,
    9.999999999989));
#326 = CARTESIAN_POINT('',(-35.04573269639,-21.99120597825,
    10.000000000004));
#327 = CARTESIAN_POINT('',(-38.5,-10.99557428756,9.999999999999));
#328 = CARTESIAN_POINT('',(-38.5,10.995574287565,10.));
#329 = CARTESIAN_POINT('',(-35.04573269639,21.99120597824,9.999999999999
    ));
#330 = CARTESIAN_POINT('',(-28.13627906593,31.780574210296,
    10.000000000002));
#331 = CARTESIAN_POINT('',(-18.24960324183,39.160140400599,
    9.999999999998));
#332 = CARTESIAN_POINT('',(-6.318470730572,43.133368969988,
    10.000000000002));
#333 = CARTESIAN_POINT('',(6.322272176228,43.150754707717,9.999999999999
    ));
#334 = CARTESIAN_POINT('',(18.326627063009,39.19661084663,10.));
#335 = CARTESIAN_POINT('',(28.282271188543,31.717343686285,10.));
#336 = CARTESIAN_POINT('',(35.14478128797,21.821145291258,10.));
#337 = CARTESIAN_POINT('',(38.500000000001,10.836515569553,10.));
#338 = CARTESIAN_POINT('',(38.5,1.165044604925E-14,10.));
#339 = PCURVE('',#90,#340);
#340 = DEFINITIONAL_REPRESENTATION('',(#341),#345);
#341 = LINE('',#342,#343);
#342 = CARTESIAN_POINT('',(0.,0.));
#343 = VECTOR('',#344,1.);
#344 = DIRECTION('',(0.,1.));
#345 = ( GEOMETRIC_REPRESENTATION_CONTEXT(2) 
PARAMETRIC_REPRESENTATION_CONTEXT() REPRESENTATION_CONTEXT('2D SPACE',''
  ) );
#346 = PCURVE('',#158,#347);
#347 = DEFINITIONAL_REPRESENTATION('',(#348),#379);
#348 = B_SPLINE_CURVE_WITH_KNOTS('',8,(#349,#350,#351,#352,#353,#354,
    #355,#356,#357,#358,#359,#360,#361,#362,#363,#364,#365,#366,#367,
    #368,#369,#370,#371,#372,#373,#374,#375,#376,#377,#378),
  .UNSPECIFIED.,.F.,.F.,(9,7,7,7,9),(4.78E-15,60.475658581604,
    120.9513171632,181.42697574481,241.90263432641),.UNSPECIFIED.);
#349 = CARTESIAN_POINT('',(1.1E-16,5.));
#350 = CARTESIAN_POINT('',(0.193509206599,5.));
#351 = CARTESIAN_POINT('',(0.388906977383,4.999999999999));
#352 = CARTESIAN_POINT('',(0.585411759041,5.000000000001));
#353 = CARTESIAN_POINT('',(0.782408693497,5.));
#354 = CARTESIAN_POINT('',(0.979488506437,5.));
#355 = CARTESIAN_POINT('',(1.176493675537,5.));
#356 = CARTESIAN_POINT('',(1.373354958825,5.));
#357 = CARTESIAN_POINT('',(1.766799218076,5.));
#358 = CARTESIAN_POINT('',(1.963381866489,5.));
#359 = CARTESIAN_POINT('',(2.159825999306,5.));
#360 = CARTESIAN_POINT('',(2.356195021441,5.));
#361 = CARTESIAN_POINT('',(2.552543644684,5.));
#362 = CARTESIAN_POINT('',(2.748893739477,5.));
#363 = CARTESIAN_POINT('',(2.94524305023,5.));
#364 = CARTESIAN_POINT('',(3.33794225695,5.));
#365 = CARTESIAN_POINT('',(3.534291567702,5.));
#366 = CARTESIAN_POINT('',(3.730641662495,5.));
#367 = CARTESIAN_POINT('',(3.926990285739,5.));
#368 = CARTESIAN_POINT('',(4.123359307874,5.));
#369 = CARTESIAN_POINT('',(4.319803440691,5.));
#370 = CARTESIAN_POINT('',(4.516386089103,5.));
#371 = CARTESIAN_POINT('',(4.909830348354,5.));
#372 = CARTESIAN_POINT('',(5.106691631643,5.));
#373 = CARTESIAN_POINT('',(5.303696800743,5.));
#374 = CARTESIAN_POINT('',(5.500776613683,5.));
#375 = CARTESIAN_POINT('',(5.697773548139,5.));
#376 = CARTESIAN_POINT('',(5.894278329797,5.));
#377 = CARTESIAN_POINT('',(6.08967610058,5.));
#378 = CARTESIAN_POINT('',(6.28318530718,5.));
#379 = ( GEOMETRIC_REPRESENTATION_CONTEXT(2) 
PARAMETRIC_REPRESENTATION_CONTEXT() REPRESENTATION_CONTEXT('2D SPACE',''
  ) );
#380 = ORIENTED_EDGE('',*,*,#381,.F.);
#381 = EDGE_CURVE('',#24,#313,#382,.T.);
#382 = SURFACE_CURVE('',#383,(#406,#413),.PCURVE_S1.);
#383 = B_SPLINE_CURVE_WITH_KNOTS('',11,(#384,#385,#386,#387,#388,#389,
    #390,#391,#392,#393,#394,#395,#396,#397,#398,#399,#400,#401,#402,
    #403,#404,#405),.UNSPECIFIED.,.T.,.F.,(12,10,12),(4.78E-15,
    120.9513171632,241.90263432641),.UNSPECIFIED.);
#384 = CARTESIAN_POINT('',(38.5,2.22044604925E-15,10.));
#385 = CARTESIAN_POINT('',(38.500000000002,-10.83651556956,
    10.000000000002));
#386 = CARTESIAN_POINT('',(35.144781287968,-21.82114529123,
    9.999999999994));
#387 = CARTESIAN_POINT('',(28.282271188548,-31.71734368634,
    10.000000000015));
#388 = CARTESIAN_POINT('',(18.326627063001,-39.19661084653,
    9.999999999974));
#389 = CARTESIAN_POINT('',(6.322272176237,-43.15075470784,
    10.000000000032));
#390 = CARTESIAN_POINT('',(-6.31847073058,-43.13336896987,9.99999999997)
  );
#391 = CARTESIAN_POINT('',(-18.24960324182,-39.16014040068,
    10.000000000021));
#392 = CARTESIAN_POINT('',(-28.13627906593,-31.78057421025,
    9.999999999989));
#393 = CARTESIAN_POINT('',(-35.04573269639,-21.99120597825,
    10.000000000004));
#394 = CARTESIAN_POINT('',(-38.5,-10.99557428756,9.999999999999));
#395 = CARTESIAN_POINT('',(-38.5,10.995574287565,10.));
#396 = CARTESIAN_POINT('',(-35.04573269639,21.99120597824,9.999999999999
    ));
#397 = CARTESIAN_POINT('',(-28.13627906593,31.780574210296,
    10.000000000002));
#398 = CARTESIAN_POINT('',(-18.24960324183,39.160140400599,
    9.999999999998));
#399 = CARTESIAN_POINT('',(-6.318470730572,43.133368969988,
    10.000000000002));
#400 = CARTESIAN_POINT('',(6.322272176228,43.150754707717,9.999999999999
    ));
#401 = CARTESIAN_POINT('',(18.326627063009,39.19661084663,10.));
#402 = CARTESIAN_POINT('',(28.282271188543,31.717343686285,10.));
#403 = CARTESIAN_POINT('',(35.14478128797,21.821145291258,10.));
#404 = CARTESIAN_POINT('',(38.500000000001,10.836515569553,10.));
#405 = CARTESIAN_POINT('',(38.5,1.165044604925E-14,10.));
#406 = PCURVE('',#90,#407);
#407 = DEFINITIONAL_REPRESENTATION('',(#408),#412);
#408 = LINE('',#409,#410);
#409 = CARTESIAN_POINT('',(0.,0.));
#410 = VECTOR('',#411,1.);
#411 = DIRECTION('',(0.,1.));
#412 = ( GEOMETRIC_REPRESENTATION_CONTEXT(2) 
PARAMETRIC_REPRESENTATION_CONTEXT() REPRESENTATION_CONTEXT('2D SPACE',''
  ) );
#413 = PCURVE('',#414,#419);
#414 = PLANE('',#415);
#415 = AXIS2_PLACEMENT_3D('',#416,#417,#418);
#416 = CARTESIAN_POINT('',(-36.,-1.12955395075E-15,10.));
#417 = DIRECTION('',(-0.,-2.22044604925E-16,-1.));
#418 = DIRECTION('',(-1.,0.,0.));
#419 = DEFINITIONAL_REPRESENTATION('',(#420),#443);
#420 = B_SPLINE_CURVE_WITH_KNOTS('',11,(#421,#422,#423,#424,#425,#426,
    #427,#428,#429,#430,#431,#432,#433,#434,#435,#436,#437,#438,#439,
    #440,#441,#442),.UNSPECIFIED.,.F.,.F.,(12,10,12),(4.78E-15,
    120.9513171632,241.90263432641),.UNSPECIFIED.);
#421 = CARTESIAN_POINT('',(-74.5,2.E-17));
#422 = CARTESIAN_POINT('',(-74.5,-10.83651556956));
#423 = CARTESIAN_POINT('',(-71.14478128796,-21.82114529123));
#424 = CARTESIAN_POINT('',(-64.28227118854,-31.71734368634));
#425 = CARTESIAN_POINT('',(-54.326627063,-39.19661084653));
#426 = CARTESIAN_POINT('',(-42.32227217623,-43.15075470784));
#427 = CARTESIAN_POINT('',(-29.68152926942,-43.13336896987));
#428 = CARTESIAN_POINT('',(-17.75039675817,-39.16014040068));
#429 = CARTESIAN_POINT('',(-7.863720934062,-31.78057421025));
#430 = CARTESIAN_POINT('',(-0.954267303607,-21.99120597825));
#431 = CARTESIAN_POINT('',(2.500000000001,-10.99557428756));
#432 = CARTESIAN_POINT('',(2.5,10.995574287565));
#433 = CARTESIAN_POINT('',(-0.954267303606,21.99120597824));
#434 = CARTESIAN_POINT('',(-7.863720934065,31.780574210296));
#435 = CARTESIAN_POINT('',(-17.75039675816,39.160140400599));
#436 = CARTESIAN_POINT('',(-29.68152926942,43.133368969988));
#437 = CARTESIAN_POINT('',(-42.32227217622,43.150754707717));
#438 = CARTESIAN_POINT('',(-54.326627063,39.19661084663));
#439 = CARTESIAN_POINT('',(-64.28227118854,31.717343686285));
#440 = CARTESIAN_POINT('',(-71.14478128797,21.821145291258));
#441 = CARTESIAN_POINT('',(-74.5,10.836515569553));
#442 = CARTESIAN_POINT('',(-74.5,9.45E-15));
#443 = ( GEOMETRIC_REPRESENTATION_CONTEXT(2) 
PARAMETRIC_REPRESENTATION_CONTEXT() REPRESENTATION_CONTEXT('2D SPACE',''
  ) );
#444 = ADVANCED_FACE('',(#445),#212,.T.);
#445 = FACE_BOUND('',#446,.T.);
#446 = EDGE_LOOP('',(#447,#470,#496,#522,#548,#569));
#447 = ORIENTED_EDGE('',*,*,#448,.F.);
#448 = EDGE_CURVE('',#449,#171,#451,.T.);
#449 = VERTEX_POINT('',#450);
#450 = CARTESIAN_POINT('',(-35.46829570193,-1.499999999999,15.));
#451 = SURFACE_CURVE('',#452,(#456,#463),.PCURVE_S1.);
#452 = LINE('',#453,#454);
#453 = CARTESIAN_POINT('',(-32.,-1.5,15.));
#454 = VECTOR('',#455,1.);
#455 = DIRECTION('',(-1.,0.,0.));
#456 = PCURVE('',#212,#457);
#457 = DEFINITIONAL_REPRESENTATION('',(#458),#462);
#458 = LINE('',#459,#460);
#459 = CARTESIAN_POINT('',(0.,0.));
#460 = VECTOR('',#461,1.);
#461 = DIRECTION('',(1.,0.));
#462 = ( GEOMETRIC_REPRESENTATION_CONTEXT(2) 
PARAMETRIC_REPRESENTATION_CONTEXT() REPRESENTATION_CONTEXT('2D SPACE',''
  ) );
#463 = PCURVE('',#187,#464);
#464 = DEFINITIONAL_REPRESENTATION('',(#465),#469);
#465 = LINE('',#466,#467);
#466 = CARTESIAN_POINT('',(-32.,1.5));
#467 = VECTOR('',#468,1.);
#468 = DIRECTION('',(-1.,0.));
#469 = ( GEOMETRIC_REPRESENTATION_CONTEXT(2) 
PARAMETRIC_REPRESENTATION_CONTEXT() REPRESENTATION_CONTEXT('2D SPACE',''
  ) );
#470 = ORIENTED_EDGE('',*,*,#471,.F.);
#471 = EDGE_CURVE('',#472,#449,#474,.T.);
#472 = VERTEX_POINT('',#473);
#473 = CARTESIAN_POINT('',(-35.46829570193,-1.5,14.));
#474 = SURFACE_CURVE('',#475,(#479,#485),.PCURVE_S1.);
#475 = LINE('',#476,#477);
#476 = CARTESIAN_POINT('',(-35.46829570193,-1.5,14.));
#477 = VECTOR('',#478,1.);
#478 = DIRECTION('',(0.,2.22044604925E-16,1.));
#479 = PCURVE('',#212,#480);
#480 = DEFINITIONAL_REPRESENTATION('',(#481),#484);
#481 = B_SPLINE_CURVE_WITH_KNOTS('',1,(#482,#483),.UNSPECIFIED.,.F.,.F.,
  (2,2),(-5.9999999991E-07,1.0000006),.PIECEWISE_BEZIER_KNOTS.);
#482 = CARTESIAN_POINT('',(3.468295701936,-1.0000006));
#483 = CARTESIAN_POINT('',(3.468295701936,5.999999999062E-07));
#484 = ( GEOMETRIC_REPRESENTATION_CONTEXT(2) 
PARAMETRIC_REPRESENTATION_CONTEXT() REPRESENTATION_CONTEXT('2D SPACE',''
  ) );
#485 = PCURVE('',#486,#491);
#486 = CYLINDRICAL_SURFACE('',#487,35.5);
#487 = AXIS2_PLACEMENT_3D('',#488,#489,#490);
#488 = CARTESIAN_POINT('',(0.,3.10862446895E-15,14.));
#489 = DIRECTION('',(0.,2.22044604925E-16,1.));
#490 = DIRECTION('',(1.,0.,0.));
#491 = DEFINITIONAL_REPRESENTATION('',(#492),#495);
#492 = B_SPLINE_CURVE_WITH_KNOTS('',1,(#493,#494),.UNSPECIFIED.,.F.,.F.,
  (2,2),(-5.9999999991E-07,1.0000006),.PIECEWISE_BEZIER_KNOTS.);
#493 = CARTESIAN_POINT('',(-3.099326549393,-5.9999999991E-07));
#494 = CARTESIAN_POINT('',(-3.099326549393,1.0000006));
#495 = ( GEOMETRIC_REPRESENTATION_CONTEXT(2) 
PARAMETRIC_REPRESENTATION_CONTEXT() REPRESENTATION_CONTEXT('2D SPACE',''
  ) );
#496 = ORIENTED_EDGE('',*,*,#497,.F.);
#497 = EDGE_CURVE('',#498,#472,#500,.T.);
#498 = VERTEX_POINT('',#499);
#499 = CARTESIAN_POINT('',(-33.46640106136,-1.5,14.));
#500 = SURFACE_CURVE('',#501,(#505,#511),.PCURVE_S1.);
#501 = LINE('',#502,#503);
#502 = CARTESIAN_POINT('',(-16.,-1.5,14.));
#503 = VECTOR('',#504,1.);
#504 = DIRECTION('',(-1.,0.,0.));
#505 = PCURVE('',#212,#506);
#506 = DEFINITIONAL_REPRESENTATION('',(#507),#510);
#507 = B_SPLINE_CURVE_WITH_KNOTS('',1,(#508,#509),.UNSPECIFIED.,.F.,.F.,
  (2,2),(15.2,24.8),.PIECEWISE_BEZIER_KNOTS.);
#508 = CARTESIAN_POINT('',(-0.8,-1.));
#509 = CARTESIAN_POINT('',(8.8,-1.));
#510 = ( GEOMETRIC_REPRESENTATION_CONTEXT(2) 
PARAMETRIC_REPRESENTATION_CONTEXT() REPRESENTATION_CONTEXT('2D SPACE',''
  ) );
#511 = PCURVE('',#512,#517);
#512 = PLANE('',#513);
#513 = AXIS2_PLACEMENT_3D('',#514,#515,#516);
#514 = CARTESIAN_POINT('',(0.,3.10862446895E-15,14.));
#515 = DIRECTION('',(-0.,-2.22044604925E-16,-1.));
#516 = DIRECTION('',(1.,0.,0.));
#517 = DEFINITIONAL_REPRESENTATION('',(#518),#521);
#518 = B_SPLINE_CURVE_WITH_KNOTS('',1,(#519,#520),.UNSPECIFIED.,.F.,.F.,
  (2,2),(15.2,24.8),.PIECEWISE_BEZIER_KNOTS.);
#519 = CARTESIAN_POINT('',(-31.2,1.5));
#520 = CARTESIAN_POINT('',(-40.8,1.5));
#521 = ( GEOMETRIC_REPRESENTATION_CONTEXT(2) 
PARAMETRIC_REPRESENTATION_CONTEXT() REPRESENTATION_CONTEXT('2D SPACE',''
  ) );
#522 = ORIENTED_EDGE('',*,*,#523,.T.);
#523 = EDGE_CURVE('',#498,#524,#526,.T.);
#524 = VERTEX_POINT('',#525);
#525 = CARTESIAN_POINT('',(-33.46640106136,-1.5,10.));
#526 = SURFACE_CURVE('',#527,(#531,#537),.PCURVE_S1.);
#527 = LINE('',#528,#529);
#528 = CARTESIAN_POINT('',(-33.46640106136,-1.5,14.));
#529 = VECTOR('',#530,1.);
#530 = DIRECTION('',(-0.,-2.22044604925E-16,-1.));
#531 = PCURVE('',#212,#532);
#532 = DEFINITIONAL_REPRESENTATION('',(#533),#536);
#533 = B_SPLINE_CURVE_WITH_KNOTS('',1,(#534,#535),.UNSPECIFIED.,.F.,.F.,
  (2,2),(-5.9999999991E-07,4.0000006),.PIECEWISE_BEZIER_KNOTS.);
#534 = CARTESIAN_POINT('',(1.466401061363,-0.9999994));
#535 = CARTESIAN_POINT('',(1.466401061363,-5.0000006));
#536 = ( GEOMETRIC_REPRESENTATION_CONTEXT(2) 
PARAMETRIC_REPRESENTATION_CONTEXT() REPRESENTATION_CONTEXT('2D SPACE',''
  ) );
#537 = PCURVE('',#538,#543);
#538 = CYLINDRICAL_SURFACE('',#539,33.5);
#539 = AXIS2_PLACEMENT_3D('',#540,#541,#542);
#540 = CARTESIAN_POINT('',(0.,3.10862446895E-15,14.));
#541 = DIRECTION('',(-0.,-2.22044604925E-16,-1.));
#542 = DIRECTION('',(1.,0.,0.));
#543 = DEFINITIONAL_REPRESENTATION('',(#544),#547);
#544 = B_SPLINE_CURVE_WITH_KNOTS('',1,(#545,#546),.UNSPECIFIED.,.F.,.F.,
  (2,2),(-5.9999999991E-07,4.0000006),.PIECEWISE_BEZIER_KNOTS.);
#545 = CARTESIAN_POINT('',(3.096801558725,-5.9999999991E-07));
#546 = CARTESIAN_POINT('',(3.096801558725,4.0000006));
#547 = ( GEOMETRIC_REPRESENTATION_CONTEXT(2) 
PARAMETRIC_REPRESENTATION_CONTEXT() REPRESENTATION_CONTEXT('2D SPACE',''
  ) );
#548 = ORIENTED_EDGE('',*,*,#549,.T.);
#549 = EDGE_CURVE('',#524,#24,#550,.T.);
#550 = SURFACE_CURVE('',#551,(#555,#562),.PCURVE_S1.);
#551 = LINE('',#552,#553);
#552 = CARTESIAN_POINT('',(-32.,-1.5,10.));
#553 = VECTOR('',#554,1.);
#554 = DIRECTION('',(-1.,0.,0.));
#555 = PCURVE('',#212,#556);
#556 = DEFINITIONAL_REPRESENTATION('',(#557),#561);
#557 = LINE('',#558,#559);
#558 = CARTESIAN_POINT('',(0.,-5.));
#559 = VECTOR('',#560,1.);
#560 = DIRECTION('',(1.,0.));
#561 = ( GEOMETRIC_REPRESENTATION_CONTEXT(2) 
PARAMETRIC_REPRESENTATION_CONTEXT() REPRESENTATION_CONTEXT('2D SPACE',''
  ) );
#562 = PCURVE('',#414,#563);
#563 = DEFINITIONAL_REPRESENTATION('',(#564),#568);
#564 = LINE('',#565,#566);
#565 = CARTESIAN_POINT('',(-4.,-1.5));
#566 = VECTOR('',#567,1.);
#567 = DIRECTION('',(1.,0.));
#568 = ( GEOMETRIC_REPRESENTATION_CONTEXT(2) 
PARAMETRIC_REPRESENTATION_CONTEXT() REPRESENTATION_CONTEXT('2D SPACE',''
  ) );
#569 = ORIENTED_EDGE('',*,*,#199,.F.);
#570 = ADVANCED_FACE('',(#571),#187,.F.);
#571 = FACE_BOUND('',#572,.T.);
#572 = EDGE_LOOP('',(#573,#604,#626,#627,#628,#652));
#573 = ORIENTED_EDGE('',*,*,#574,.T.);
#574 = EDGE_CURVE('',#575,#577,#579,.T.);
#575 = VERTEX_POINT('',#576);
#576 = CARTESIAN_POINT('',(-35.46829570193,1.499999999999,15.));
#577 = VERTEX_POINT('',#578);
#578 = CARTESIAN_POINT('',(35.5,3.306690738755E-16,15.));
#579 = SURFACE_CURVE('',#580,(#585,#592),.PCURVE_S1.);
#580 = CIRCLE('',#581,35.5);
#581 = AXIS2_PLACEMENT_3D('',#582,#583,#584);
#582 = CARTESIAN_POINT('',(0.,3.330669073875E-15,15.));
#583 = DIRECTION('',(0.,-2.22044604925E-16,-1.));
#584 = DIRECTION('',(1.,0.,0.));
#585 = PCURVE('',#187,#586);
#586 = DEFINITIONAL_REPRESENTATION('',(#587),#591);
#587 = CIRCLE('',#588,35.5);
#588 = AXIS2_PLACEMENT_2D('',#589,#590);
#589 = CARTESIAN_POINT('',(0.,0.));
#590 = DIRECTION('',(1.,-0.));
#591 = ( GEOMETRIC_REPRESENTATION_CONTEXT(2) 
PARAMETRIC_REPRESENTATION_CONTEXT() REPRESENTATION_CONTEXT('2D SPACE',''
  ) );
#592 = PCURVE('',#593,#598);
#593 = CYLINDRICAL_SURFACE('',#594,35.5);
#594 = AXIS2_PLACEMENT_3D('',#595,#596,#597);
#595 = CARTESIAN_POINT('',(0.,3.10862446895E-15,14.));
#596 = DIRECTION('',(0.,2.22044604925E-16,1.));
#597 = DIRECTION('',(1.,0.,0.));
#598 = DEFINITIONAL_REPRESENTATION('',(#599),#603);
#599 = LINE('',#600,#601);
#600 = CARTESIAN_POINT('',(-0.,1.));
#601 = VECTOR('',#602,1.);
#602 = DIRECTION('',(-1.,0.));
#603 = ( GEOMETRIC_REPRESENTATION_CONTEXT(2) 
PARAMETRIC_REPRESENTATION_CONTEXT() REPRESENTATION_CONTEXT('2D SPACE',''
  ) );
#604 = ORIENTED_EDGE('',*,*,#605,.T.);
#605 = EDGE_CURVE('',#577,#449,#606,.T.);
#606 = SURFACE_CURVE('',#607,(#612,#619),.PCURVE_S1.);
#607 = CIRCLE('',#608,35.5);
#608 = AXIS2_PLACEMENT_3D('',#609,#610,#611);
#609 = CARTESIAN_POINT('',(0.,3.330669073875E-15,15.));
#610 = DIRECTION('',(0.,-2.22044604925E-16,-1.));
#611 = DIRECTION('',(1.,0.,0.));
#612 = PCURVE('',#187,#613);
#613 = DEFINITIONAL_REPRESENTATION('',(#614),#618);
#614 = CIRCLE('',#615,35.5);
#615 = AXIS2_PLACEMENT_2D('',#616,#617);
#616 = CARTESIAN_POINT('',(0.,0.));
#617 = DIRECTION('',(1.,-0.));
#618 = ( GEOMETRIC_REPRESENTATION_CONTEXT(2) 
PARAMETRIC_REPRESENTATION_CONTEXT() REPRESENTATION_CONTEXT('2D SPACE',''
  ) );
#619 = PCURVE('',#486,#620);
#620 = DEFINITIONAL_REPRESENTATION('',(#621),#625);
#621 = LINE('',#622,#623);
#622 = CARTESIAN_POINT('',(-0.,1.));
#623 = VECTOR('',#624,1.);
#624 = DIRECTION('',(-1.,0.));
#625 = ( GEOMETRIC_REPRESENTATION_CONTEXT(2) 
PARAMETRIC_REPRESENTATION_CONTEXT() REPRESENTATION_CONTEXT('2D SPACE',''
  ) );
#626 = ORIENTED_EDGE('',*,*,#448,.T.);
#627 = ORIENTED_EDGE('',*,*,#170,.F.);
#628 = ORIENTED_EDGE('',*,*,#629,.F.);
#629 = EDGE_CURVE('',#630,#143,#632,.T.);
#630 = VERTEX_POINT('',#631);
#631 = CARTESIAN_POINT('',(-38.47076812334,1.500000000001,15.));
#632 = SURFACE_CURVE('',#633,(#638,#645),.PCURVE_S1.);
#633 = CIRCLE('',#634,38.5);
#634 = AXIS2_PLACEMENT_3D('',#635,#636,#637);
#635 = CARTESIAN_POINT('',(0.,3.330669073875E-15,15.));
#636 = DIRECTION('',(0.,-2.22044604925E-16,-1.));
#637 = DIRECTION('',(1.,0.,0.));
#638 = PCURVE('',#187,#639);
#639 = DEFINITIONAL_REPRESENTATION('',(#640),#644);
#640 = CIRCLE('',#641,38.5);
#641 = AXIS2_PLACEMENT_2D('',#642,#643);
#642 = CARTESIAN_POINT('',(0.,0.));
#643 = DIRECTION('',(1.,-0.));
#644 = ( GEOMETRIC_REPRESENTATION_CONTEXT(2) 
PARAMETRIC_REPRESENTATION_CONTEXT() REPRESENTATION_CONTEXT('2D SPACE',''
  ) );
#645 = PCURVE('',#158,#646);
#646 = DEFINITIONAL_REPRESENTATION('',(#647),#651);
#647 = LINE('',#648,#649);
#648 = CARTESIAN_POINT('',(0.,0.));
#649 = VECTOR('',#650,1.);
#650 = DIRECTION('',(1.,0.));
#651 = ( GEOMETRIC_REPRESENTATION_CONTEXT(2) 
PARAMETRIC_REPRESENTATION_CONTEXT() REPRESENTATION_CONTEXT('2D SPACE',''
  ) );
#652 = ORIENTED_EDGE('',*,*,#653,.T.);
#653 = EDGE_CURVE('',#630,#575,#654,.T.);
#654 = SURFACE_CURVE('',#655,(#659,#666),.PCURVE_S1.);
#655 = LINE('',#656,#657);
#656 = CARTESIAN_POINT('',(-40.,1.5,15.));
#657 = VECTOR('',#658,1.);
#658 = DIRECTION('',(1.,0.,0.));
#659 = PCURVE('',#187,#660);
#660 = DEFINITIONAL_REPRESENTATION('',(#661),#665);
#661 = LINE('',#662,#663);
#662 = CARTESIAN_POINT('',(-40.,-1.5));
#663 = VECTOR('',#664,1.);
#664 = DIRECTION('',(1.,-0.));
#665 = ( GEOMETRIC_REPRESENTATION_CONTEXT(2) 
PARAMETRIC_REPRESENTATION_CONTEXT() REPRESENTATION_CONTEXT('2D SPACE',''
  ) );
#666 = PCURVE('',#667,#672);
#667 = PLANE('',#668);
#668 = AXIS2_PLACEMENT_3D('',#669,#670,#671);
#669 = CARTESIAN_POINT('',(-40.,1.5,15.));
#670 = DIRECTION('',(0.,-1.,2.22044604925E-16));
#671 = DIRECTION('',(1.,0.,0.));
#672 = DEFINITIONAL_REPRESENTATION('',(#673),#677);
#673 = LINE('',#674,#675);
#674 = CARTESIAN_POINT('',(0.,0.));
#675 = VECTOR('',#676,1.);
#676 = DIRECTION('',(1.,0.));
#677 = ( GEOMETRIC_REPRESENTATION_CONTEXT(2) 
PARAMETRIC_REPRESENTATION_CONTEXT() REPRESENTATION_CONTEXT('2D SPACE',''
  ) );
#678 = ADVANCED_FACE('',(#679),#158,.T.);
#679 = FACE_BOUND('',#680,.T.);
#680 = EDGE_LOOP('',(#681,#682,#683,#702));
#681 = ORIENTED_EDGE('',*,*,#142,.T.);
#682 = ORIENTED_EDGE('',*,*,#312,.F.);
#683 = ORIENTED_EDGE('',*,*,#684,.F.);
#684 = EDGE_CURVE('',#630,#313,#685,.T.);
#685 = SURFACE_CURVE('',#686,(#690,#696),.PCURVE_S1.);
#686 = LINE('',#687,#688);
#687 = CARTESIAN_POINT('',(-38.47076812334,1.5,15.));
#688 = VECTOR('',#689,1.);
#689 = DIRECTION('',(-0.,-2.22044604925E-16,-1.));
#690 = PCURVE('',#158,#691);
#691 = DEFINITIONAL_REPRESENTATION('',(#692),#695);
#692 = B_SPLINE_CURVE_WITH_KNOTS('',1,(#693,#694),.UNSPECIFIED.,.F.,.F.,
  (2,2),(-5.9999999991E-07,5.000000600001),.PIECEWISE_BEZIER_KNOTS.);
#693 = CARTESIAN_POINT('',(3.18056355619,-5.9999999991E-07));
#694 = CARTESIAN_POINT('',(3.18056355619,5.000000600001));
#695 = ( GEOMETRIC_REPRESENTATION_CONTEXT(2) 
PARAMETRIC_REPRESENTATION_CONTEXT() REPRESENTATION_CONTEXT('2D SPACE',''
  ) );
#696 = PCURVE('',#667,#697);
#697 = DEFINITIONAL_REPRESENTATION('',(#698),#701);
#698 = B_SPLINE_CURVE_WITH_KNOTS('',1,(#699,#700),.UNSPECIFIED.,.F.,.F.,
  (2,2),(-5.9999999991E-07,5.000000600001),.PIECEWISE_BEZIER_KNOTS.);
#699 = CARTESIAN_POINT('',(1.529231876657,5.9999999991E-07));
#700 = CARTESIAN_POINT('',(1.529231876657,-5.000000600001));
#701 = ( GEOMETRIC_REPRESENTATION_CONTEXT(2) 
PARAMETRIC_REPRESENTATION_CONTEXT() REPRESENTATION_CONTEXT('2D SPACE',''
  ) );
#702 = ORIENTED_EDGE('',*,*,#629,.T.);
#703 = ADVANCED_FACE('',(#704),#414,.F.);
#704 = FACE_BOUND('',#705,.F.);
#705 = EDGE_LOOP('',(#706,#735,#736,#737));
#706 = ORIENTED_EDGE('',*,*,#707,.F.);
#707 = EDGE_CURVE('',#524,#708,#710,.T.);
#708 = VERTEX_POINT('',#709);
#709 = CARTESIAN_POINT('',(-33.46640106136,1.5,10.));
#710 = SURFACE_CURVE('',#711,(#716,#723),.PCURVE_S1.);
#711 = CIRCLE('',#712,33.5);
#712 = AXIS2_PLACEMENT_3D('',#713,#714,#715);
#713 = CARTESIAN_POINT('',(0.,2.22044604925E-15,10.));
#714 = DIRECTION('',(0.,-2.22044604925E-16,-1.));
#715 = DIRECTION('',(1.,0.,0.));
#716 = PCURVE('',#414,#717);
#717 = DEFINITIONAL_REPRESENTATION('',(#718),#722);
#718 = CIRCLE('',#719,33.5);
#719 = AXIS2_PLACEMENT_2D('',#720,#721);
#720 = CARTESIAN_POINT('',(-36.,2.E-17));
#721 = DIRECTION('',(-1.,0.));
#722 = ( GEOMETRIC_REPRESENTATION_CONTEXT(2) 
PARAMETRIC_REPRESENTATION_CONTEXT() REPRESENTATION_CONTEXT('2D SPACE',''
  ) );
#723 = PCURVE('',#724,#729);
#724 = PLANE('',#725);
#725 = AXIS2_PLACEMENT_3D('',#726,#727,#728);
#726 = CARTESIAN_POINT('',(0.,2.22044604925E-15,10.));
#727 = DIRECTION('',(-0.,-2.22044604925E-16,-1.));
#728 = DIRECTION('',(1.,0.,0.));
#729 = DEFINITIONAL_REPRESENTATION('',(#730),#734);
#730 = CIRCLE('',#731,33.5);
#731 = AXIS2_PLACEMENT_2D('',#732,#733);
#732 = CARTESIAN_POINT('',(0.,0.));
#733 = DIRECTION('',(1.,0.));
#734 = ( GEOMETRIC_REPRESENTATION_CONTEXT(2) 
PARAMETRIC_REPRESENTATION_CONTEXT() REPRESENTATION_CONTEXT('2D SPACE',''
  ) );
#735 = ORIENTED_EDGE('',*,*,#549,.T.);
#736 = ORIENTED_EDGE('',*,*,#381,.T.);
#737 = ORIENTED_EDGE('',*,*,#738,.T.);
#738 = EDGE_CURVE('',#313,#708,#739,.T.);
#739 = SURFACE_CURVE('',#740,(#744,#751),.PCURVE_S1.);
#740 = LINE('',#741,#742);
#741 = CARTESIAN_POINT('',(-40.,1.5,10.));
#742 = VECTOR('',#743,1.);
#743 = DIRECTION('',(1.,0.,0.));
#744 = PCURVE('',#414,#745);
#745 = DEFINITIONAL_REPRESENTATION('',(#746),#750);
#746 = LINE('',#747,#748);
#747 = CARTESIAN_POINT('',(4.,1.5));
#748 = VECTOR('',#749,1.);
#749 = DIRECTION('',(-1.,0.));
#750 = ( GEOMETRIC_REPRESENTATION_CONTEXT(2) 
PARAMETRIC_REPRESENTATION_CONTEXT() REPRESENTATION_CONTEXT('2D SPACE',''
  ) );
#751 = PCURVE('',#667,#752);
#752 = DEFINITIONAL_REPRESENTATION('',(#753),#757);
#753 = LINE('',#754,#755);
#754 = CARTESIAN_POINT('',(0.,-5.));
#755 = VECTOR('',#756,1.);
#756 = DIRECTION('',(1.,0.));
#757 = ( GEOMETRIC_REPRESENTATION_CONTEXT(2) 
PARAMETRIC_REPRESENTATION_CONTEXT() REPRESENTATION_CONTEXT('2D SPACE',''
  ) );
#758 = ADVANCED_FACE('',(#759,#762),#280,.T.);
#759 = FACE_BOUND('',#760,.T.);
#760 = EDGE_LOOP('',(#761));
#761 = ORIENTED_EDGE('',*,*,#247,.T.);
#762 = FACE_BOUND('',#763,.T.);
#763 = EDGE_LOOP('',(#764));
#764 = ORIENTED_EDGE('',*,*,#765,.F.);
#765 = EDGE_CURVE('',#766,#766,#768,.T.);
#766 = VERTEX_POINT('',#767);
#767 = CARTESIAN_POINT('',(19.76,0.,0.));
#768 = SURFACE_CURVE('',#769,(#774,#781),.PCURVE_S1.);
#769 = CIRCLE('',#770,19.76);
#770 = AXIS2_PLACEMENT_3D('',#771,#772,#773);
#771 = CARTESIAN_POINT('',(0.,0.,0.));
#772 = DIRECTION('',(0.,-2.22044604925E-16,-1.));
#773 = DIRECTION('',(1.,0.,0.));
#774 = PCURVE('',#280,#775);
#775 = DEFINITIONAL_REPRESENTATION('',(#776),#780);
#776 = CIRCLE('',#777,19.76);
#777 = AXIS2_PLACEMENT_2D('',#778,#779);
#778 = CARTESIAN_POINT('',(0.,0.));
#779 = DIRECTION('',(1.,0.));
#780 = ( GEOMETRIC_REPRESENTATION_CONTEXT(2) 
PARAMETRIC_REPRESENTATION_CONTEXT() REPRESENTATION_CONTEXT('2D SPACE',''
  ) );
#781 = PCURVE('',#782,#787);
#782 = CYLINDRICAL_SURFACE('',#783,19.76);
#783 = AXIS2_PLACEMENT_3D('',#784,#785,#786);
#784 = CARTESIAN_POINT('',(0.,8.881784197001E-16,4.));
#785 = DIRECTION('',(-0.,-2.22044604925E-16,-1.));
#786 = DIRECTION('',(1.,0.,0.));
#787 = DEFINITIONAL_REPRESENTATION('',(#788),#792);
#788 = LINE('',#789,#790);
#789 = CARTESIAN_POINT('',(0.,4.));
#790 = VECTOR('',#791,1.);
#791 = DIRECTION('',(1.,0.));
#792 = ( GEOMETRIC_REPRESENTATION_CONTEXT(2) 
PARAMETRIC_REPRESENTATION_CONTEXT() REPRESENTATION_CONTEXT('2D SPACE',''
  ) );
#793 = ADVANCED_FACE('',(#794),#538,.F.);
#794 = FACE_BOUND('',#795,.F.);
#795 = EDGE_LOOP('',(#796,#826,#848,#849));
#796 = ORIENTED_EDGE('',*,*,#797,.F.);
#797 = EDGE_CURVE('',#798,#800,#802,.T.);
#798 = VERTEX_POINT('',#799);
#799 = CARTESIAN_POINT('',(33.5,1.086244689504E-16,14.));
#800 = VERTEX_POINT('',#801);
#801 = CARTESIAN_POINT('',(33.5,2.204460492503E-16,10.));
#802 = SURFACE_CURVE('',#803,(#807,#814),.PCURVE_S1.);
#803 = LINE('',#804,#805);
#804 = CARTESIAN_POINT('',(33.5,3.10862446895E-15,14.));
#805 = VECTOR('',#806,1.);
#806 = DIRECTION('',(0.,-2.22044604925E-16,-1.));
#807 = PCURVE('',#538,#808);
#808 = DEFINITIONAL_REPRESENTATION('',(#809),#813);
#809 = LINE('',#810,#811);
#810 = CARTESIAN_POINT('',(0.,0.));
#811 = VECTOR('',#812,1.);
#812 = DIRECTION('',(0.,1.));
#813 = ( GEOMETRIC_REPRESENTATION_CONTEXT(2) 
PARAMETRIC_REPRESENTATION_CONTEXT() REPRESENTATION_CONTEXT('2D SPACE',''
  ) );
#814 = PCURVE('',#815,#820);
#815 = CYLINDRICAL_SURFACE('',#816,33.5);
#816 = AXIS2_PLACEMENT_3D('',#817,#818,#819);
#817 = CARTESIAN_POINT('',(0.,3.10862446895E-15,14.));
#818 = DIRECTION('',(-0.,-2.22044604925E-16,-1.));
#819 = DIRECTION('',(1.,0.,0.));
#820 = DEFINITIONAL_REPRESENTATION('',(#821),#825);
#821 = LINE('',#822,#823);
#822 = CARTESIAN_POINT('',(6.28318530718,0.));
#823 = VECTOR('',#824,1.);
#824 = DIRECTION('',(0.,1.));
#825 = ( GEOMETRIC_REPRESENTATION_CONTEXT(2) 
PARAMETRIC_REPRESENTATION_CONTEXT() REPRESENTATION_CONTEXT('2D SPACE',''
  ) );
#826 = ORIENTED_EDGE('',*,*,#827,.T.);
#827 = EDGE_CURVE('',#798,#498,#828,.T.);
#828 = SURFACE_CURVE('',#829,(#834,#841),.PCURVE_S1.);
#829 = CIRCLE('',#830,33.5);
#830 = AXIS2_PLACEMENT_3D('',#831,#832,#833);
#831 = CARTESIAN_POINT('',(0.,3.10862446895E-15,14.));
#832 = DIRECTION('',(0.,-2.22044604925E-16,-1.));
#833 = DIRECTION('',(1.,0.,0.));
#834 = PCURVE('',#538,#835);
#835 = DEFINITIONAL_REPRESENTATION('',(#836),#840);
#836 = LINE('',#837,#838);
#837 = CARTESIAN_POINT('',(0.,0.));
#838 = VECTOR('',#839,1.);
#839 = DIRECTION('',(1.,0.));
#840 = ( GEOMETRIC_REPRESENTATION_CONTEXT(2) 
PARAMETRIC_REPRESENTATION_CONTEXT() REPRESENTATION_CONTEXT('2D SPACE',''
  ) );
#841 = PCURVE('',#512,#842);
#842 = DEFINITIONAL_REPRESENTATION('',(#843),#847);
#843 = CIRCLE('',#844,33.5);
#844 = AXIS2_PLACEMENT_2D('',#845,#846);
#845 = CARTESIAN_POINT('',(0.,0.));
#846 = DIRECTION('',(1.,-0.));
#847 = ( GEOMETRIC_REPRESENTATION_CONTEXT(2) 
PARAMETRIC_REPRESENTATION_CONTEXT() REPRESENTATION_CONTEXT('2D SPACE',''
  ) );
#848 = ORIENTED_EDGE('',*,*,#523,.T.);
#849 = ORIENTED_EDGE('',*,*,#850,.F.);
#850 = EDGE_CURVE('',#800,#524,#851,.T.);
#851 = SURFACE_CURVE('',#852,(#857,#864),.PCURVE_S1.);
#852 = CIRCLE('',#853,33.5);
#853 = AXIS2_PLACEMENT_3D('',#854,#855,#856);
#854 = CARTESIAN_POINT('',(0.,2.22044604925E-15,10.));
#855 = DIRECTION('',(0.,-2.22044604925E-16,-1.));
#856 = DIRECTION('',(1.,0.,0.));
#857 = PCURVE('',#538,#858);
#858 = DEFINITIONAL_REPRESENTATION('',(#859),#863);
#859 = LINE('',#860,#861);
#860 = CARTESIAN_POINT('',(0.,4.));
#861 = VECTOR('',#862,1.);
#862 = DIRECTION('',(1.,0.));
#863 = ( GEOMETRIC_REPRESENTATION_CONTEXT(2) 
PARAMETRIC_REPRESENTATION_CONTEXT() REPRESENTATION_CONTEXT('2D SPACE',''
  ) );
#864 = PCURVE('',#865,#870);
#865 = PLANE('',#866);
#866 = AXIS2_PLACEMENT_3D('',#867,#868,#869);
#867 = CARTESIAN_POINT('',(0.,2.22044604925E-15,10.));
#868 = DIRECTION('',(-0.,-2.22044604925E-16,-1.));
#869 = DIRECTION('',(1.,0.,0.));
#870 = DEFINITIONAL_REPRESENTATION('',(#871),#875);
#871 = CIRCLE('',#872,33.5);
#872 = AXIS2_PLACEMENT_2D('',#873,#874);
#873 = CARTESIAN_POINT('',(0.,0.));
#874 = DIRECTION('',(1.,0.));
#875 = ( GEOMETRIC_REPRESENTATION_CONTEXT(2) 
PARAMETRIC_REPRESENTATION_CONTEXT() REPRESENTATION_CONTEXT('2D SPACE',''
  ) );
#876 = ADVANCED_FACE('',(#877),#512,.F.);
#877 = FACE_BOUND('',#878,.T.);
#878 = EDGE_LOOP('',(#879,#903,#904,#905,#929,#953));
#879 = ORIENTED_EDGE('',*,*,#880,.T.);
#880 = EDGE_CURVE('',#881,#798,#883,.T.);
#881 = VERTEX_POINT('',#882);
#882 = CARTESIAN_POINT('',(-33.46640106136,1.5,14.));
#883 = SURFACE_CURVE('',#884,(#889,#896),.PCURVE_S1.);
#884 = CIRCLE('',#885,33.5);
#885 = AXIS2_PLACEMENT_3D('',#886,#887,#888);
#886 = CARTESIAN_POINT('',(0.,3.10862446895E-15,14.));
#887 = DIRECTION('',(0.,-2.22044604925E-16,-1.));
#888 = DIRECTION('',(1.,0.,0.));
#889 = PCURVE('',#512,#890);
#890 = DEFINITIONAL_REPRESENTATION('',(#891),#895);
#891 = CIRCLE('',#892,33.5);
#892 = AXIS2_PLACEMENT_2D('',#893,#894);
#893 = CARTESIAN_POINT('',(0.,0.));
#894 = DIRECTION('',(1.,-0.));
#895 = ( GEOMETRIC_REPRESENTATION_CONTEXT(2) 
PARAMETRIC_REPRESENTATION_CONTEXT() REPRESENTATION_CONTEXT('2D SPACE',''
  ) );
#896 = PCURVE('',#815,#897);
#897 = DEFINITIONAL_REPRESENTATION('',(#898),#902);
#898 = LINE('',#899,#900);
#899 = CARTESIAN_POINT('',(0.,0.));
#900 = VECTOR('',#901,1.);
#901 = DIRECTION('',(1.,0.));
#902 = ( GEOMETRIC_REPRESENTATION_CONTEXT(2) 
PARAMETRIC_REPRESENTATION_CONTEXT() REPRESENTATION_CONTEXT('2D SPACE',''
  ) );
#903 = ORIENTED_EDGE('',*,*,#827,.T.);
#904 = ORIENTED_EDGE('',*,*,#497,.T.);
#905 = ORIENTED_EDGE('',*,*,#906,.F.);
#906 = EDGE_CURVE('',#907,#472,#909,.T.);
#907 = VERTEX_POINT('',#908);
#908 = CARTESIAN_POINT('',(35.5,1.086244689504E-16,14.));
#909 = SURFACE_CURVE('',#910,(#915,#922),.PCURVE_S1.);
#910 = CIRCLE('',#911,35.5);
#911 = AXIS2_PLACEMENT_3D('',#912,#913,#914);
#912 = CARTESIAN_POINT('',(0.,3.10862446895E-15,14.));
#913 = DIRECTION('',(0.,-2.22044604925E-16,-1.));
#914 = DIRECTION('',(1.,0.,0.));
#915 = PCURVE('',#512,#916);
#916 = DEFINITIONAL_REPRESENTATION('',(#917),#921);
#917 = CIRCLE('',#918,35.5);
#918 = AXIS2_PLACEMENT_2D('',#919,#920);
#919 = CARTESIAN_POINT('',(0.,0.));
#920 = DIRECTION('',(1.,-0.));
#921 = ( GEOMETRIC_REPRESENTATION_CONTEXT(2) 
PARAMETRIC_REPRESENTATION_CONTEXT() REPRESENTATION_CONTEXT('2D SPACE',''
  ) );
#922 = PCURVE('',#486,#923);
#923 = DEFINITIONAL_REPRESENTATION('',(#924),#928);
#924 = LINE('',#925,#926);
#925 = CARTESIAN_POINT('',(-0.,0.));
#926 = VECTOR('',#927,1.);
#927 = DIRECTION('',(-1.,0.));
#928 = ( GEOMETRIC_REPRESENTATION_CONTEXT(2) 
PARAMETRIC_REPRESENTATION_CONTEXT() REPRESENTATION_CONTEXT('2D SPACE',''
  ) );
#929 = ORIENTED_EDGE('',*,*,#930,.F.);
#930 = EDGE_CURVE('',#931,#907,#933,.T.);
#931 = VERTEX_POINT('',#932);
#932 = CARTESIAN_POINT('',(-35.46829570193,1.5,14.));
#933 = SURFACE_CURVE('',#934,(#939,#946),.PCURVE_S1.);
#934 = CIRCLE('',#935,35.5);
#935 = AXIS2_PLACEMENT_3D('',#936,#937,#938);
#936 = CARTESIAN_POINT('',(0.,3.10862446895E-15,14.));
#937 = DIRECTION('',(0.,-2.22044604925E-16,-1.));
#938 = DIRECTION('',(1.,0.,0.));
#939 = PCURVE('',#512,#940);
#940 = DEFINITIONAL_REPRESENTATION('',(#941),#945);
#941 = CIRCLE('',#942,35.5);
#942 = AXIS2_PLACEMENT_2D('',#943,#944);
#943 = CARTESIAN_POINT('',(0.,0.));
#944 = DIRECTION('',(1.,-0.));
#945 = ( GEOMETRIC_REPRESENTATION_CONTEXT(2) 
PARAMETRIC_REPRESENTATION_CONTEXT() REPRESENTATION_CONTEXT('2D SPACE',''
  ) );
#946 = PCURVE('',#593,#947);
#947 = DEFINITIONAL_REPRESENTATION('',(#948),#952);
#948 = LINE('',#949,#950);
#949 = CARTESIAN_POINT('',(-0.,0.));
#950 = VECTOR('',#951,1.);
#951 = DIRECTION('',(-1.,0.));
#952 = ( GEOMETRIC_REPRESENTATION_CONTEXT(2) 
PARAMETRIC_REPRESENTATION_CONTEXT() REPRESENTATION_CONTEXT('2D SPACE',''
  ) );
#953 = ORIENTED_EDGE('',*,*,#954,.T.);
#954 = EDGE_CURVE('',#931,#881,#955,.T.);
#955 = SURFACE_CURVE('',#956,(#960,#966),.PCURVE_S1.);
#956 = LINE('',#957,#958);
#957 = CARTESIAN_POINT('',(-20.,1.5,14.));
#958 = VECTOR('',#959,1.);
#959 = DIRECTION('',(1.,0.,0.));
#960 = PCURVE('',#512,#961);
#961 = DEFINITIONAL_REPRESENTATION('',(#962),#965);
#962 = B_SPLINE_CURVE_WITH_KNOTS('',1,(#963,#964),.UNSPECIFIED.,.F.,.F.,
  (2,2),(-20.8,-11.2),.PIECEWISE_BEZIER_KNOTS.);
#963 = CARTESIAN_POINT('',(-40.8,-1.5));
#964 = CARTESIAN_POINT('',(-31.2,-1.5));
#965 = ( GEOMETRIC_REPRESENTATION_CONTEXT(2) 
PARAMETRIC_REPRESENTATION_CONTEXT() REPRESENTATION_CONTEXT('2D SPACE',''
  ) );
#966 = PCURVE('',#667,#967);
#967 = DEFINITIONAL_REPRESENTATION('',(#968),#971);
#968 = B_SPLINE_CURVE_WITH_KNOTS('',1,(#969,#970),.UNSPECIFIED.,.F.,.F.,
  (2,2),(-20.8,-11.2),.PIECEWISE_BEZIER_KNOTS.);
#969 = CARTESIAN_POINT('',(-0.8,-1.));
#970 = CARTESIAN_POINT('',(8.8,-1.));
#971 = ( GEOMETRIC_REPRESENTATION_CONTEXT(2) 
PARAMETRIC_REPRESENTATION_CONTEXT() REPRESENTATION_CONTEXT('2D SPACE',''
  ) );
#972 = ADVANCED_FACE('',(#973),#486,.F.);
#973 = FACE_BOUND('',#974,.T.);
#974 = EDGE_LOOP('',(#975,#996,#997,#998));
#975 = ORIENTED_EDGE('',*,*,#976,.F.);
#976 = EDGE_CURVE('',#907,#577,#977,.T.);
#977 = SURFACE_CURVE('',#978,(#982,#989),.PCURVE_S1.);
#978 = LINE('',#979,#980);
#979 = CARTESIAN_POINT('',(35.5,3.10862446895E-15,14.));
#980 = VECTOR('',#981,1.);
#981 = DIRECTION('',(0.,2.22044604925E-16,1.));
#982 = PCURVE('',#486,#983);
#983 = DEFINITIONAL_REPRESENTATION('',(#984),#988);
#984 = LINE('',#985,#986);
#985 = CARTESIAN_POINT('',(-0.,0.));
#986 = VECTOR('',#987,1.);
#987 = DIRECTION('',(-0.,1.));
#988 = ( GEOMETRIC_REPRESENTATION_CONTEXT(2) 
PARAMETRIC_REPRESENTATION_CONTEXT() REPRESENTATION_CONTEXT('2D SPACE',''
  ) );
#989 = PCURVE('',#593,#990);
#990 = DEFINITIONAL_REPRESENTATION('',(#991),#995);
#991 = LINE('',#992,#993);
#992 = CARTESIAN_POINT('',(-6.28318530718,0.));
#993 = VECTOR('',#994,1.);
#994 = DIRECTION('',(-0.,1.));
#995 = ( GEOMETRIC_REPRESENTATION_CONTEXT(2) 
PARAMETRIC_REPRESENTATION_CONTEXT() REPRESENTATION_CONTEXT('2D SPACE',''
  ) );
#996 = ORIENTED_EDGE('',*,*,#906,.T.);
#997 = ORIENTED_EDGE('',*,*,#471,.T.);
#998 = ORIENTED_EDGE('',*,*,#605,.F.);
#999 = ADVANCED_FACE('',(#1000),#593,.F.);
#1000 = FACE_BOUND('',#1001,.T.);
#1001 = EDGE_LOOP('',(#1002,#1003,#1004,#1005));
#1002 = ORIENTED_EDGE('',*,*,#930,.T.);
#1003 = ORIENTED_EDGE('',*,*,#976,.T.);
#1004 = ORIENTED_EDGE('',*,*,#574,.F.);
#1005 = ORIENTED_EDGE('',*,*,#1006,.F.);
#1006 = EDGE_CURVE('',#931,#575,#1007,.T.);
#1007 = SURFACE_CURVE('',#1008,(#1012,#1018),.PCURVE_S1.);
#1008 = LINE('',#1009,#1010);
#1009 = CARTESIAN_POINT('',(-35.46829570193,1.5,14.));
#1010 = VECTOR('',#1011,1.);
#1011 = DIRECTION('',(0.,2.22044604925E-16,1.));
#1012 = PCURVE('',#593,#1013);
#1013 = DEFINITIONAL_REPRESENTATION('',(#1014),#1017);
#1014 = B_SPLINE_CURVE_WITH_KNOTS('',1,(#1015,#1016),.UNSPECIFIED.,.F.,
  .F.,(2,2),(-5.9999999991E-07,1.0000006),.PIECEWISE_BEZIER_KNOTS.);
#1015 = CARTESIAN_POINT('',(-3.183858757787,-5.9999999991E-07));
#1016 = CARTESIAN_POINT('',(-3.183858757787,1.0000006));
#1017 = ( GEOMETRIC_REPRESENTATION_CONTEXT(2) 
PARAMETRIC_REPRESENTATION_CONTEXT() REPRESENTATION_CONTEXT('2D SPACE',''
  ) );
#1018 = PCURVE('',#667,#1019);
#1019 = DEFINITIONAL_REPRESENTATION('',(#1020),#1023);
#1020 = B_SPLINE_CURVE_WITH_KNOTS('',1,(#1021,#1022),.UNSPECIFIED.,.F.,
  .F.,(2,2),(-5.9999999991E-07,1.0000006),.PIECEWISE_BEZIER_KNOTS.);
#1021 = CARTESIAN_POINT('',(4.531704298064,-1.0000006));
#1022 = CARTESIAN_POINT('',(4.531704298064,5.999999999062E-07));
#1023 = ( GEOMETRIC_REPRESENTATION_CONTEXT(2) 
PARAMETRIC_REPRESENTATION_CONTEXT() REPRESENTATION_CONTEXT('2D SPACE',''
  ) );
#1024 = ADVANCED_FACE('',(#1025),#667,.T.);
#1025 = FACE_BOUND('',#1026,.T.);
#1026 = EDGE_LOOP('',(#1027,#1028,#1029,#1030,#1049,#1050));
#1027 = ORIENTED_EDGE('',*,*,#653,.F.);
#1028 = ORIENTED_EDGE('',*,*,#684,.T.);
#1029 = ORIENTED_EDGE('',*,*,#738,.T.);
#1030 = ORIENTED_EDGE('',*,*,#1031,.F.);
#1031 = EDGE_CURVE('',#881,#708,#1032,.T.);
#1032 = SURFACE_CURVE('',#1033,(#1037,#1043),.PCURVE_S1.);
#1033 = LINE('',#1034,#1035);
#1034 = CARTESIAN_POINT('',(-33.46640106136,1.5,14.));
#1035 = VECTOR('',#1036,1.);
#1036 = DIRECTION('',(-0.,-2.22044604925E-16,-1.));
#1037 = PCURVE('',#667,#1038);
#1038 = DEFINITIONAL_REPRESENTATION('',(#1039),#1042);
#1039 = B_SPLINE_CURVE_WITH_KNOTS('',1,(#1040,#1041),.UNSPECIFIED.,.F.,
  .F.,(2,2),(-5.9999999991E-07,4.0000006),.PIECEWISE_BEZIER_KNOTS.);
#1040 = CARTESIAN_POINT('',(6.533598938637,-0.9999994));
#1041 = CARTESIAN_POINT('',(6.533598938637,-5.0000006));
#1042 = ( GEOMETRIC_REPRESENTATION_CONTEXT(2) 
PARAMETRIC_REPRESENTATION_CONTEXT() REPRESENTATION_CONTEXT('2D SPACE',''
  ) );
#1043 = PCURVE('',#815,#1044);
#1044 = DEFINITIONAL_REPRESENTATION('',(#1045),#1048);
#1045 = B_SPLINE_CURVE_WITH_KNOTS('',1,(#1046,#1047),.UNSPECIFIED.,.F.,
  .F.,(2,2),(-5.9999999991E-07,4.0000006),.PIECEWISE_BEZIER_KNOTS.);
#1046 = CARTESIAN_POINT('',(3.186383748454,-5.9999999991E-07));
#1047 = CARTESIAN_POINT('',(3.186383748454,4.0000006));
#1048 = ( GEOMETRIC_REPRESENTATION_CONTEXT(2) 
PARAMETRIC_REPRESENTATION_CONTEXT() REPRESENTATION_CONTEXT('2D SPACE',''
  ) );
#1049 = ORIENTED_EDGE('',*,*,#954,.F.);
#1050 = ORIENTED_EDGE('',*,*,#1006,.T.);
#1051 = ADVANCED_FACE('',(#1052),#724,.F.);
#1052 = FACE_BOUND('',#1053,.F.);
#1053 = EDGE_LOOP('',(#1054,#1077,#1078,#1101));
#1054 = ORIENTED_EDGE('',*,*,#1055,.T.);
#1055 = EDGE_CURVE('',#1056,#524,#1058,.T.);
#1056 = VERTEX_POINT('',#1057);
#1057 = CARTESIAN_POINT('',(-32.,-1.5,10.));
#1058 = SURFACE_CURVE('',#1059,(#1063,#1070),.PCURVE_S1.);
#1059 = LINE('',#1060,#1061);
#1060 = CARTESIAN_POINT('',(-32.,-1.5,10.));
#1061 = VECTOR('',#1062,1.);
#1062 = DIRECTION('',(-1.,0.,0.));
#1063 = PCURVE('',#724,#1064);
#1064 = DEFINITIONAL_REPRESENTATION('',(#1065),#1069);
#1065 = LINE('',#1066,#1067);
#1066 = CARTESIAN_POINT('',(-32.,1.5));
#1067 = VECTOR('',#1068,1.);
#1068 = DIRECTION('',(-1.,0.));
#1069 = ( GEOMETRIC_REPRESENTATION_CONTEXT(2) 
PARAMETRIC_REPRESENTATION_CONTEXT() REPRESENTATION_CONTEXT('2D SPACE',''
  ) );
#1070 = PCURVE('',#865,#1071);
#1071 = DEFINITIONAL_REPRESENTATION('',(#1072),#1076);
#1072 = LINE('',#1073,#1074);
#1073 = CARTESIAN_POINT('',(-32.,1.5));
#1074 = VECTOR('',#1075,1.);
#1075 = DIRECTION('',(-1.,0.));
#1076 = ( GEOMETRIC_REPRESENTATION_CONTEXT(2) 
PARAMETRIC_REPRESENTATION_CONTEXT() REPRESENTATION_CONTEXT('2D SPACE',''
  ) );
#1077 = ORIENTED_EDGE('',*,*,#707,.T.);
#1078 = ORIENTED_EDGE('',*,*,#1079,.T.);
#1079 = EDGE_CURVE('',#708,#1080,#1082,.T.);
#1080 = VERTEX_POINT('',#1081);
#1081 = CARTESIAN_POINT('',(-32.,1.5,10.));
#1082 = SURFACE_CURVE('',#1083,(#1087,#1094),.PCURVE_S1.);
#1083 = LINE('',#1084,#1085);
#1084 = CARTESIAN_POINT('',(-40.,1.5,10.));
#1085 = VECTOR('',#1086,1.);
#1086 = DIRECTION('',(1.,0.,0.));
#1087 = PCURVE('',#724,#1088);
#1088 = DEFINITIONAL_REPRESENTATION('',(#1089),#1093);
#1089 = LINE('',#1090,#1091);
#1090 = CARTESIAN_POINT('',(-40.,-1.5));
#1091 = VECTOR('',#1092,1.);
#1092 = DIRECTION('',(1.,0.));
#1093 = ( GEOMETRIC_REPRESENTATION_CONTEXT(2) 
PARAMETRIC_REPRESENTATION_CONTEXT() REPRESENTATION_CONTEXT('2D SPACE',''
  ) );
#1094 = PCURVE('',#865,#1095);
#1095 = DEFINITIONAL_REPRESENTATION('',(#1096),#1100);
#1096 = LINE('',#1097,#1098);
#1097 = CARTESIAN_POINT('',(-40.,-1.5));
#1098 = VECTOR('',#1099,1.);
#1099 = DIRECTION('',(1.,0.));
#1100 = ( GEOMETRIC_REPRESENTATION_CONTEXT(2) 
PARAMETRIC_REPRESENTATION_CONTEXT() REPRESENTATION_CONTEXT('2D SPACE',''
  ) );
#1101 = ORIENTED_EDGE('',*,*,#1102,.T.);
#1102 = EDGE_CURVE('',#1080,#1056,#1103,.T.);
#1103 = SURFACE_CURVE('',#1104,(#1108,#1115),.PCURVE_S1.);
#1104 = LINE('',#1105,#1106);
#1105 = CARTESIAN_POINT('',(-32.,1.5,10.));
#1106 = VECTOR('',#1107,1.);
#1107 = DIRECTION('',(0.,-1.,2.22044604925E-16));
#1108 = PCURVE('',#724,#1109);
#1109 = DEFINITIONAL_REPRESENTATION('',(#1110),#1114);
#1110 = LINE('',#1111,#1112);
#1111 = CARTESIAN_POINT('',(-32.,-1.5));
#1112 = VECTOR('',#1113,1.);
#1113 = DIRECTION('',(0.,1.));
#1114 = ( GEOMETRIC_REPRESENTATION_CONTEXT(2) 
PARAMETRIC_REPRESENTATION_CONTEXT() REPRESENTATION_CONTEXT('2D SPACE',''
  ) );
#1115 = PCURVE('',#865,#1116);
#1116 = DEFINITIONAL_REPRESENTATION('',(#1117),#1121);
#1117 = LINE('',#1118,#1119);
#1118 = CARTESIAN_POINT('',(-32.,-1.5));
#1119 = VECTOR('',#1120,1.);
#1120 = DIRECTION('',(0.,1.));
#1121 = ( GEOMETRIC_REPRESENTATION_CONTEXT(2) 
PARAMETRIC_REPRESENTATION_CONTEXT() REPRESENTATION_CONTEXT('2D SPACE',''
  ) );
#1122 = ADVANCED_FACE('',(#1123),#782,.F.);
#1123 = FACE_BOUND('',#1124,.F.);
#1124 = EDGE_LOOP('',(#1125,#1154,#1175,#1176));
#1125 = ORIENTED_EDGE('',*,*,#1126,.T.);
#1126 = EDGE_CURVE('',#1127,#1127,#1129,.T.);
#1127 = VERTEX_POINT('',#1128);
#1128 = CARTESIAN_POINT('',(19.76,-1.118215802999E-16,4.));
#1129 = SURFACE_CURVE('',#1130,(#1135,#1142),.PCURVE_S1.);
#1130 = CIRCLE('',#1131,19.76);
#1131 = AXIS2_PLACEMENT_3D('',#1132,#1133,#1134);
#1132 = CARTESIAN_POINT('',(0.,8.881784197001E-16,4.));
#1133 = DIRECTION('',(0.,-2.22044604925E-16,-1.));
#1134 = DIRECTION('',(1.,0.,0.));
#1135 = PCURVE('',#782,#1136);
#1136 = DEFINITIONAL_REPRESENTATION('',(#1137),#1141);
#1137 = LINE('',#1138,#1139);
#1138 = CARTESIAN_POINT('',(0.,0.));
#1139 = VECTOR('',#1140,1.);
#1140 = DIRECTION('',(1.,0.));
#1141 = ( GEOMETRIC_REPRESENTATION_CONTEXT(2) 
PARAMETRIC_REPRESENTATION_CONTEXT() REPRESENTATION_CONTEXT('2D SPACE',''
  ) );
#1142 = PCURVE('',#1143,#1148);
#1143 = CONICAL_SURFACE('',#1144,19.76,0.785398163397);
#1144 = AXIS2_PLACEMENT_3D('',#1145,#1146,#1147);
#1145 = CARTESIAN_POINT('',(0.,8.881784197001E-16,4.));
#1146 = DIRECTION('',(0.,2.22044604925E-16,1.));
#1147 = DIRECTION('',(1.,0.,0.));
#1148 = DEFINITIONAL_REPRESENTATION('',(#1149),#1153);
#1149 = LINE('',#1150,#1151);
#1150 = CARTESIAN_POINT('',(-0.,0.));
#1151 = VECTOR('',#1152,1.);
#1152 = DIRECTION('',(-1.,0.));
#1153 = ( GEOMETRIC_REPRESENTATION_CONTEXT(2) 
PARAMETRIC_REPRESENTATION_CONTEXT() REPRESENTATION_CONTEXT('2D SPACE',''
  ) );
#1154 = ORIENTED_EDGE('',*,*,#1155,.T.);
#1155 = EDGE_CURVE('',#1127,#766,#1156,.T.);
#1156 = SEAM_CURVE('',#1157,(#1161,#1168),.PCURVE_S1.);
#1157 = LINE('',#1158,#1159);
#1158 = CARTESIAN_POINT('',(19.76,8.881784197001E-16,4.));
#1159 = VECTOR('',#1160,1.);
#1160 = DIRECTION('',(0.,-2.22044604925E-16,-1.));
#1161 = PCURVE('',#782,#1162);
#1162 = DEFINITIONAL_REPRESENTATION('',(#1163),#1167);
#1163 = LINE('',#1164,#1165);
#1164 = CARTESIAN_POINT('',(0.,0.));
#1165 = VECTOR('',#1166,1.);
#1166 = DIRECTION('',(0.,1.));
#1167 = ( GEOMETRIC_REPRESENTATION_CONTEXT(2) 
PARAMETRIC_REPRESENTATION_CONTEXT() REPRESENTATION_CONTEXT('2D SPACE',''
  ) );
#1168 = PCURVE('',#782,#1169);
#1169 = DEFINITIONAL_REPRESENTATION('',(#1170),#1174);
#1170 = LINE('',#1171,#1172);
#1171 = CARTESIAN_POINT('',(6.28318530718,0.));
#1172 = VECTOR('',#1173,1.);
#1173 = DIRECTION('',(0.,1.));
#1174 = ( GEOMETRIC_REPRESENTATION_CONTEXT(2) 
PARAMETRIC_REPRESENTATION_CONTEXT() REPRESENTATION_CONTEXT('2D SPACE',''
  ) );
#1175 = ORIENTED_EDGE('',*,*,#765,.F.);
#1176 = ORIENTED_EDGE('',*,*,#1155,.F.);
#1177 = ADVANCED_FACE('',(#1178),#815,.F.);
#1178 = FACE_BOUND('',#1179,.F.);
#1179 = EDGE_LOOP('',(#1180,#1181,#1182,#1204));
#1180 = ORIENTED_EDGE('',*,*,#880,.T.);
#1181 = ORIENTED_EDGE('',*,*,#797,.T.);
#1182 = ORIENTED_EDGE('',*,*,#1183,.F.);
#1183 = EDGE_CURVE('',#708,#800,#1184,.T.);
#1184 = SURFACE_CURVE('',#1185,(#1190,#1197),.PCURVE_S1.);
#1185 = CIRCLE('',#1186,33.5);
#1186 = AXIS2_PLACEMENT_3D('',#1187,#1188,#1189);
#1187 = CARTESIAN_POINT('',(0.,2.22044604925E-15,10.));
#1188 = DIRECTION('',(0.,-2.22044604925E-16,-1.));
#1189 = DIRECTION('',(1.,0.,0.));
#1190 = PCURVE('',#815,#1191);
#1191 = DEFINITIONAL_REPRESENTATION('',(#1192),#1196);
#1192 = LINE('',#1193,#1194);
#1193 = CARTESIAN_POINT('',(0.,4.));
#1194 = VECTOR('',#1195,1.);
#1195 = DIRECTION('',(1.,0.));
#1196 = ( GEOMETRIC_REPRESENTATION_CONTEXT(2) 
PARAMETRIC_REPRESENTATION_CONTEXT() REPRESENTATION_CONTEXT('2D SPACE',''
  ) );
#1197 = PCURVE('',#865,#1198);
#1198 = DEFINITIONAL_REPRESENTATION('',(#1199),#1203);
#1199 = CIRCLE('',#1200,33.5);
#1200 = AXIS2_PLACEMENT_2D('',#1201,#1202);
#1201 = CARTESIAN_POINT('',(0.,0.));
#1202 = DIRECTION('',(1.,0.));
#1203 = ( GEOMETRIC_REPRESENTATION_CONTEXT(2) 
PARAMETRIC_REPRESENTATION_CONTEXT() REPRESENTATION_CONTEXT('2D SPACE',''
  ) );
#1204 = ORIENTED_EDGE('',*,*,#1031,.F.);
#1205 = ADVANCED_FACE('',(#1206,#1213),#865,.F.);
#1206 = FACE_BOUND('',#1207,.F.);
#1207 = EDGE_LOOP('',(#1208,#1209,#1210,#1211,#1212));
#1208 = ORIENTED_EDGE('',*,*,#1183,.T.);
#1209 = ORIENTED_EDGE('',*,*,#850,.T.);
#1210 = ORIENTED_EDGE('',*,*,#1055,.F.);
#1211 = ORIENTED_EDGE('',*,*,#1102,.F.);
#1212 = ORIENTED_EDGE('',*,*,#1079,.F.);
#1213 = FACE_BOUND('',#1214,.F.);
#1214 = EDGE_LOOP('',(#1215));
#1215 = ORIENTED_EDGE('',*,*,#1216,.F.);
#1216 = EDGE_CURVE('',#1217,#1217,#1219,.T.);
#1217 = VERTEX_POINT('',#1218);
#1218 = CARTESIAN_POINT('',(26.25,2.204460492503E-16,10.));
#1219 = SURFACE_CURVE('',#1220,(#1225,#1232),.PCURVE_S1.);
#1220 = CIRCLE('',#1221,26.25);
#1221 = AXIS2_PLACEMENT_3D('',#1222,#1223,#1224);
#1222 = CARTESIAN_POINT('',(0.,2.22044604925E-15,10.));
#1223 = DIRECTION('',(0.,-2.22044604925E-16,-1.));
#1224 = DIRECTION('',(1.,0.,0.));
#1225 = PCURVE('',#865,#1226);
#1226 = DEFINITIONAL_REPRESENTATION('',(#1227),#1231);
#1227 = CIRCLE('',#1228,26.25);
#1228 = AXIS2_PLACEMENT_2D('',#1229,#1230);
#1229 = CARTESIAN_POINT('',(0.,0.));
#1230 = DIRECTION('',(1.,0.));
#1231 = ( GEOMETRIC_REPRESENTATION_CONTEXT(2) 
PARAMETRIC_REPRESENTATION_CONTEXT() REPRESENTATION_CONTEXT('2D SPACE',''
  ) );
#1232 = PCURVE('',#1233,#1238);
#1233 = CYLINDRICAL_SURFACE('',#1234,26.25);
#1234 = AXIS2_PLACEMENT_3D('',#1235,#1236,#1237);
#1235 = CARTESIAN_POINT('',(0.,2.22044604925E-15,10.));
#1236 = DIRECTION('',(0.,2.22044604925E-16,1.));
#1237 = DIRECTION('',(1.,0.,0.));
#1238 = DEFINITIONAL_REPRESENTATION('',(#1239),#1243);
#1239 = LINE('',#1240,#1241);
#1240 = CARTESIAN_POINT('',(-0.,0.));
#1241 = VECTOR('',#1242,1.);
#1242 = DIRECTION('',(-1.,0.));
#1243 = ( GEOMETRIC_REPRESENTATION_CONTEXT(2) 
PARAMETRIC_REPRESENTATION_CONTEXT() REPRESENTATION_CONTEXT('2D SPACE',''
  ) );
#1244 = ADVANCED_FACE('',(#1245),#1143,.F.);
#1245 = FACE_BOUND('',#1246,.T.);
#1246 = EDGE_LOOP('',(#1247,#1248,#1271,#1298));
#1247 = ORIENTED_EDGE('',*,*,#1126,.T.);
#1248 = ORIENTED_EDGE('',*,*,#1249,.T.);
#1249 = EDGE_CURVE('',#1127,#1250,#1252,.T.);
#1250 = VERTEX_POINT('',#1251);
#1251 = CARTESIAN_POINT('',(21.76,3.322676295502E-16,6.));
#1252 = SEAM_CURVE('',#1253,(#1257,#1264),.PCURVE_S1.);
#1253 = LINE('',#1254,#1255);
#1254 = CARTESIAN_POINT('',(19.76,8.881784197001E-16,4.));
#1255 = VECTOR('',#1256,1.);
#1256 = DIRECTION('',(0.707106781187,1.570092458684E-16,0.707106781187)
  );
#1257 = PCURVE('',#1143,#1258);
#1258 = DEFINITIONAL_REPRESENTATION('',(#1259),#1263);
#1259 = LINE('',#1260,#1261);
#1260 = CARTESIAN_POINT('',(-0.,0.));
#1261 = VECTOR('',#1262,1.);
#1262 = DIRECTION('',(-0.,1.));
#1263 = ( GEOMETRIC_REPRESENTATION_CONTEXT(2) 
PARAMETRIC_REPRESENTATION_CONTEXT() REPRESENTATION_CONTEXT('2D SPACE',''
  ) );
#1264 = PCURVE('',#1143,#1265);
#1265 = DEFINITIONAL_REPRESENTATION('',(#1266),#1270);
#1266 = LINE('',#1267,#1268);
#1267 = CARTESIAN_POINT('',(-6.28318530718,0.));
#1268 = VECTOR('',#1269,1.);
#1269 = DIRECTION('',(-0.,1.));
#1270 = ( GEOMETRIC_REPRESENTATION_CONTEXT(2) 
PARAMETRIC_REPRESENTATION_CONTEXT() REPRESENTATION_CONTEXT('2D SPACE',''
  ) );
#1271 = ORIENTED_EDGE('',*,*,#1272,.F.);
#1272 = EDGE_CURVE('',#1250,#1250,#1273,.T.);
#1273 = SURFACE_CURVE('',#1274,(#1279,#1286),.PCURVE_S1.);
#1274 = CIRCLE('',#1275,21.76);
#1275 = AXIS2_PLACEMENT_3D('',#1276,#1277,#1278);
#1276 = CARTESIAN_POINT('',(0.,1.33226762955E-15,6.));
#1277 = DIRECTION('',(0.,-2.22044604925E-16,-1.));
#1278 = DIRECTION('',(1.,0.,0.));
#1279 = PCURVE('',#1143,#1280);
#1280 = DEFINITIONAL_REPRESENTATION('',(#1281),#1285);
#1281 = LINE('',#1282,#1283);
#1282 = CARTESIAN_POINT('',(-0.,2.));
#1283 = VECTOR('',#1284,1.);
#1284 = DIRECTION('',(-1.,0.));
#1285 = ( GEOMETRIC_REPRESENTATION_CONTEXT(2) 
PARAMETRIC_REPRESENTATION_CONTEXT() REPRESENTATION_CONTEXT('2D SPACE',''
  ) );
#1286 = PCURVE('',#1287,#1292);
#1287 = CONICAL_SURFACE('',#1288,19.76,0.785398163397);
#1288 = AXIS2_PLACEMENT_3D('',#1289,#1290,#1291);
#1289 = CARTESIAN_POINT('',(0.,1.7763568394E-15,8.));
#1290 = DIRECTION('',(-0.,-2.22044604925E-16,-1.));
#1291 = DIRECTION('',(1.,0.,0.));
#1292 = DEFINITIONAL_REPRESENTATION('',(#1293),#1297);
#1293 = LINE('',#1294,#1295);
#1294 = CARTESIAN_POINT('',(0.,2.));
#1295 = VECTOR('',#1296,1.);
#1296 = DIRECTION('',(1.,0.));
#1297 = ( GEOMETRIC_REPRESENTATION_CONTEXT(2) 
PARAMETRIC_REPRESENTATION_CONTEXT() REPRESENTATION_CONTEXT('2D SPACE',''
  ) );
#1298 = ORIENTED_EDGE('',*,*,#1249,.F.);
#1299 = ADVANCED_FACE('',(#1300),#1233,.T.);
#1300 = FACE_BOUND('',#1301,.F.);
#1301 = EDGE_LOOP('',(#1302,#1303,#1326,#1353));
#1302 = ORIENTED_EDGE('',*,*,#1216,.T.);
#1303 = ORIENTED_EDGE('',*,*,#1304,.T.);
#1304 = EDGE_CURVE('',#1217,#1305,#1307,.T.);
#1305 = VERTEX_POINT('',#1306);
#1306 = CARTESIAN_POINT('',(26.25,1.086244689504E-16,14.));
#1307 = SEAM_CURVE('',#1308,(#1312,#1319),.PCURVE_S1.);
#1308 = LINE('',#1309,#1310);
#1309 = CARTESIAN_POINT('',(26.25,2.22044604925E-15,10.));
#1310 = VECTOR('',#1311,1.);
#1311 = DIRECTION('',(0.,2.22044604925E-16,1.));
#1312 = PCURVE('',#1233,#1313);
#1313 = DEFINITIONAL_REPRESENTATION('',(#1314),#1318);
#1314 = LINE('',#1315,#1316);
#1315 = CARTESIAN_POINT('',(-0.,0.));
#1316 = VECTOR('',#1317,1.);
#1317 = DIRECTION('',(-0.,1.));
#1318 = ( GEOMETRIC_REPRESENTATION_CONTEXT(2) 
PARAMETRIC_REPRESENTATION_CONTEXT() REPRESENTATION_CONTEXT('2D SPACE',''
  ) );
#1319 = PCURVE('',#1233,#1320);
#1320 = DEFINITIONAL_REPRESENTATION('',(#1321),#1325);
#1321 = LINE('',#1322,#1323);
#1322 = CARTESIAN_POINT('',(-6.28318530718,0.));
#1323 = VECTOR('',#1324,1.);
#1324 = DIRECTION('',(-0.,1.));
#1325 = ( GEOMETRIC_REPRESENTATION_CONTEXT(2) 
PARAMETRIC_REPRESENTATION_CONTEXT() REPRESENTATION_CONTEXT('2D SPACE',''
  ) );
#1326 = ORIENTED_EDGE('',*,*,#1327,.F.);
#1327 = EDGE_CURVE('',#1305,#1305,#1328,.T.);
#1328 = SURFACE_CURVE('',#1329,(#1334,#1341),.PCURVE_S1.);
#1329 = CIRCLE('',#1330,26.25);
#1330 = AXIS2_PLACEMENT_3D('',#1331,#1332,#1333);
#1331 = CARTESIAN_POINT('',(0.,3.10862446895E-15,14.));
#1332 = DIRECTION('',(0.,-2.22044604925E-16,-1.));
#1333 = DIRECTION('',(1.,0.,0.));
#1334 = PCURVE('',#1233,#1335);
#1335 = DEFINITIONAL_REPRESENTATION('',(#1336),#1340);
#1336 = LINE('',#1337,#1338);
#1337 = CARTESIAN_POINT('',(-0.,4.));
#1338 = VECTOR('',#1339,1.);
#1339 = DIRECTION('',(-1.,0.));
#1340 = ( GEOMETRIC_REPRESENTATION_CONTEXT(2) 
PARAMETRIC_REPRESENTATION_CONTEXT() REPRESENTATION_CONTEXT('2D SPACE',''
  ) );
#1341 = PCURVE('',#1342,#1347);
#1342 = PLANE('',#1343);
#1343 = AXIS2_PLACEMENT_3D('',#1344,#1345,#1346);
#1344 = CARTESIAN_POINT('',(0.,3.10862446895E-15,14.));
#1345 = DIRECTION('',(-0.,-2.22044604925E-16,-1.));
#1346 = DIRECTION('',(1.,0.,0.));
#1347 = DEFINITIONAL_REPRESENTATION('',(#1348),#1352);
#1348 = CIRCLE('',#1349,26.25);
#1349 = AXIS2_PLACEMENT_2D('',#1350,#1351);
#1350 = CARTESIAN_POINT('',(0.,0.));
#1351 = DIRECTION('',(1.,-0.));
#1352 = ( GEOMETRIC_REPRESENTATION_CONTEXT(2) 
PARAMETRIC_REPRESENTATION_CONTEXT() REPRESENTATION_CONTEXT('2D SPACE',''
  ) );
#1353 = ORIENTED_EDGE('',*,*,#1304,.F.);
#1354 = ADVANCED_FACE('',(#1355),#1287,.F.);
#1355 = FACE_BOUND('',#1356,.F.);
#1356 = EDGE_LOOP('',(#1357,#1386,#1407,#1408));
#1357 = ORIENTED_EDGE('',*,*,#1358,.T.);
#1358 = EDGE_CURVE('',#1359,#1359,#1361,.T.);
#1359 = VERTEX_POINT('',#1360);
#1360 = CARTESIAN_POINT('',(19.76,-2.236431605997E-16,8.));
#1361 = SURFACE_CURVE('',#1362,(#1367,#1374),.PCURVE_S1.);
#1362 = CIRCLE('',#1363,19.76);
#1363 = AXIS2_PLACEMENT_3D('',#1364,#1365,#1366);
#1364 = CARTESIAN_POINT('',(0.,1.7763568394E-15,8.));
#1365 = DIRECTION('',(0.,-2.22044604925E-16,-1.));
#1366 = DIRECTION('',(1.,0.,0.));
#1367 = PCURVE('',#1287,#1368);
#1368 = DEFINITIONAL_REPRESENTATION('',(#1369),#1373);
#1369 = LINE('',#1370,#1371);
#1370 = CARTESIAN_POINT('',(0.,0.));
#1371 = VECTOR('',#1372,1.);
#1372 = DIRECTION('',(1.,0.));
#1373 = ( GEOMETRIC_REPRESENTATION_CONTEXT(2) 
PARAMETRIC_REPRESENTATION_CONTEXT() REPRESENTATION_CONTEXT('2D SPACE',''
  ) );
#1374 = PCURVE('',#1375,#1380);
#1375 = PLANE('',#1376);
#1376 = AXIS2_PLACEMENT_3D('',#1377,#1378,#1379);
#1377 = CARTESIAN_POINT('',(0.,1.7763568394E-15,8.));
#1378 = DIRECTION('',(-0.,-2.22044604925E-16,-1.));
#1379 = DIRECTION('',(1.,0.,0.));
#1380 = DEFINITIONAL_REPRESENTATION('',(#1381),#1385);
#1381 = CIRCLE('',#1382,19.76);
#1382 = AXIS2_PLACEMENT_2D('',#1383,#1384);
#1383 = CARTESIAN_POINT('',(0.,0.));
#1384 = DIRECTION('',(1.,-0.));
#1385 = ( GEOMETRIC_REPRESENTATION_CONTEXT(2) 
PARAMETRIC_REPRESENTATION_CONTEXT() REPRESENTATION_CONTEXT('2D SPACE',''
  ) );
#1386 = ORIENTED_EDGE('',*,*,#1387,.T.);
#1387 = EDGE_CURVE('',#1359,#1250,#1388,.T.);
#1388 = SEAM_CURVE('',#1389,(#1393,#1400),.PCURVE_S1.);
#1389 = LINE('',#1390,#1391);
#1390 = CARTESIAN_POINT('',(19.76,1.7763568394E-15,8.));
#1391 = VECTOR('',#1392,1.);
#1392 = DIRECTION('',(0.707106781187,-1.570092458684E-16,-0.707106781187
    ));
#1393 = PCURVE('',#1287,#1394);
#1394 = DEFINITIONAL_REPRESENTATION('',(#1395),#1399);
#1395 = LINE('',#1396,#1397);
#1396 = CARTESIAN_POINT('',(0.,0.));
#1397 = VECTOR('',#1398,1.);
#1398 = DIRECTION('',(0.,1.));
#1399 = ( GEOMETRIC_REPRESENTATION_CONTEXT(2) 
PARAMETRIC_REPRESENTATION_CONTEXT() REPRESENTATION_CONTEXT('2D SPACE',''
  ) );
#1400 = PCURVE('',#1287,#1401);
#1401 = DEFINITIONAL_REPRESENTATION('',(#1402),#1406);
#1402 = LINE('',#1403,#1404);
#1403 = CARTESIAN_POINT('',(6.28318530718,0.));
#1404 = VECTOR('',#1405,1.);
#1405 = DIRECTION('',(0.,1.));
#1406 = ( GEOMETRIC_REPRESENTATION_CONTEXT(2) 
PARAMETRIC_REPRESENTATION_CONTEXT() REPRESENTATION_CONTEXT('2D SPACE',''
  ) );
#1407 = ORIENTED_EDGE('',*,*,#1272,.F.);
#1408 = ORIENTED_EDGE('',*,*,#1387,.F.);
#1409 = ADVANCED_FACE('',(#1410,#1441),#1342,.F.);
#1410 = FACE_BOUND('',#1411,.T.);
#1411 = EDGE_LOOP('',(#1412));
#1412 = ORIENTED_EDGE('',*,*,#1413,.T.);
#1413 = EDGE_CURVE('',#1414,#1414,#1416,.T.);
#1414 = VERTEX_POINT('',#1415);
#1415 = CARTESIAN_POINT('',(24.5,1.086244689504E-16,14.));
#1416 = SURFACE_CURVE('',#1417,(#1422,#1429),.PCURVE_S1.);
#1417 = CIRCLE('',#1418,24.5);
#1418 = AXIS2_PLACEMENT_3D('',#1419,#1420,#1421);
#1419 = CARTESIAN_POINT('',(0.,3.10862446895E-15,14.));
#1420 = DIRECTION('',(0.,-2.22044604925E-16,-1.));
#1421 = DIRECTION('',(1.,0.,0.));
#1422 = PCURVE('',#1342,#1423);
#1423 = DEFINITIONAL_REPRESENTATION('',(#1424),#1428);
#1424 = CIRCLE('',#1425,24.5);
#1425 = AXIS2_PLACEMENT_2D('',#1426,#1427);
#1426 = CARTESIAN_POINT('',(0.,0.));
#1427 = DIRECTION('',(1.,-0.));
#1428 = ( GEOMETRIC_REPRESENTATION_CONTEXT(2) 
PARAMETRIC_REPRESENTATION_CONTEXT() REPRESENTATION_CONTEXT('2D SPACE',''
  ) );
#1429 = PCURVE('',#1430,#1435);
#1430 = CYLINDRICAL_SURFACE('',#1431,24.5);
#1431 = AXIS2_PLACEMENT_3D('',#1432,#1433,#1434);
#1432 = CARTESIAN_POINT('',(0.,3.10862446895E-15,14.));
#1433 = DIRECTION('',(-0.,-2.22044604925E-16,-1.));
#1434 = DIRECTION('',(1.,0.,0.));
#1435 = DEFINITIONAL_REPRESENTATION('',(#1436),#1440);
#1436 = LINE('',#1437,#1438);
#1437 = CARTESIAN_POINT('',(0.,0.));
#1438 = VECTOR('',#1439,1.);
#1439 = DIRECTION('',(1.,0.));
#1440 = ( GEOMETRIC_REPRESENTATION_CONTEXT(2) 
PARAMETRIC_REPRESENTATION_CONTEXT() REPRESENTATION_CONTEXT('2D SPACE',''
  ) );
#1441 = FACE_BOUND('',#1442,.T.);
#1442 = EDGE_LOOP('',(#1443));
#1443 = ORIENTED_EDGE('',*,*,#1327,.F.);
#1444 = ADVANCED_FACE('',(#1445,#1448),#1375,.F.);
#1445 = FACE_BOUND('',#1446,.T.);
#1446 = EDGE_LOOP('',(#1447));
#1447 = ORIENTED_EDGE('',*,*,#1358,.T.);
#1448 = FACE_BOUND('',#1449,.T.);
#1449 = EDGE_LOOP('',(#1450));
#1450 = ORIENTED_EDGE('',*,*,#1451,.F.);
#1451 = EDGE_CURVE('',#1452,#1452,#1454,.T.);
#1452 = VERTEX_POINT('',#1453);
#1453 = CARTESIAN_POINT('',(24.5,-2.236431605997E-16,8.));
#1454 = SURFACE_CURVE('',#1455,(#1460,#1467),.PCURVE_S1.);
#1455 = CIRCLE('',#1456,24.5);
#1456 = AXIS2_PLACEMENT_3D('',#1457,#1458,#1459);
#1457 = CARTESIAN_POINT('',(0.,1.7763568394E-15,8.));
#1458 = DIRECTION('',(0.,-2.22044604925E-16,-1.));
#1459 = DIRECTION('',(1.,0.,0.));
#1460 = PCURVE('',#1375,#1461);
#1461 = DEFINITIONAL_REPRESENTATION('',(#1462),#1466);
#1462 = CIRCLE('',#1463,24.5);
#1463 = AXIS2_PLACEMENT_2D('',#1464,#1465);
#1464 = CARTESIAN_POINT('',(0.,0.));
#1465 = DIRECTION('',(1.,-0.));
#1466 = ( GEOMETRIC_REPRESENTATION_CONTEXT(2) 
PARAMETRIC_REPRESENTATION_CONTEXT() REPRESENTATION_CONTEXT('2D SPACE',''
  ) );
#1467 = PCURVE('',#1430,#1468);
#1468 = DEFINITIONAL_REPRESENTATION('',(#1469),#1473);
#1469 = LINE('',#1470,#1471);
#1470 = CARTESIAN_POINT('',(0.,6.));
#1471 = VECTOR('',#1472,1.);
#1472 = DIRECTION('',(1.,0.));
#1473 = ( GEOMETRIC_REPRESENTATION_CONTEXT(2) 
PARAMETRIC_REPRESENTATION_CONTEXT() REPRESENTATION_CONTEXT('2D SPACE',''
  ) );
#1474 = ADVANCED_FACE('',(#1475),#1430,.F.);
#1475 = FACE_BOUND('',#1476,.F.);
#1476 = EDGE_LOOP('',(#1477,#1478,#1499,#1500));
#1477 = ORIENTED_EDGE('',*,*,#1413,.T.);
#1478 = ORIENTED_EDGE('',*,*,#1479,.T.);
#1479 = EDGE_CURVE('',#1414,#1452,#1480,.T.);
#1480 = SEAM_CURVE('',#1481,(#1485,#1492),.PCURVE_S1.);
#1481 = LINE('',#1482,#1483);
#1482 = CARTESIAN_POINT('',(24.5,3.10862446895E-15,14.));
#1483 = VECTOR('',#1484,1.);
#1484 = DIRECTION('',(0.,-2.22044604925E-16,-1.));
#1485 = PCURVE('',#1430,#1486);
#1486 = DEFINITIONAL_REPRESENTATION('',(#1487),#1491);
#1487 = LINE('',#1488,#1489);
#1488 = CARTESIAN_POINT('',(0.,0.));
#1489 = VECTOR('',#1490,1.);
#1490 = DIRECTION('',(0.,1.));
#1491 = ( GEOMETRIC_REPRESENTATION_CONTEXT(2) 
PARAMETRIC_REPRESENTATION_CONTEXT() REPRESENTATION_CONTEXT('2D SPACE',''
  ) );
#1492 = PCURVE('',#1430,#1493);
#1493 = DEFINITIONAL_REPRESENTATION('',(#1494),#1498);
#1494 = LINE('',#1495,#1496);
#1495 = CARTESIAN_POINT('',(6.28318530718,0.));
#1496 = VECTOR('',#1497,1.);
#1497 = DIRECTION('',(0.,1.));
#1498 = ( GEOMETRIC_REPRESENTATION_CONTEXT(2) 
PARAMETRIC_REPRESENTATION_CONTEXT() REPRESENTATION_CONTEXT('2D SPACE',''
  ) );
#1499 = ORIENTED_EDGE('',*,*,#1451,.F.);
#1500 = ORIENTED_EDGE('',*,*,#1479,.F.);
#1501 = ( GEOMETRIC_REPRESENTATION_CONTEXT(3) 
GLOBAL_UNCERTAINTY_ASSIGNED_CONTEXT((#1505)) 
GLOBAL_UNIT_ASSIGNED_CONTEXT((#1502,#1503,#1504)) REPRESENTATION_CONTEXT
('Context #1','3D Context with UNIT and UNCERTAINTY') );
#1502 = ( LENGTH_UNIT() NAMED_UNIT(*) SI_UNIT(.MILLI.,.METRE.) );
#1503 = ( NAMED_UNIT(*) PLANE_ANGLE_UNIT() SI_UNIT($,.RADIAN.) );
#1504 = ( NAMED_UNIT(*) SI_UNIT($,.STERADIAN.) SOLID_ANGLE_UNIT() );
#1505 = UNCERTAINTY_MEASURE_WITH_UNIT(LENGTH_MEASURE(1.E-06),#1502,
  'distance_accuracy_value','confusion accuracy');
#1506 = PRODUCT_RELATED_PRODUCT_CATEGORY('part',$,(#7));
#1507 = MECHANICAL_DESIGN_GEOMETRIC_PRESENTATION_REPRESENTATION('',(
    #1508),#1501);
#1508 = STYLED_ITEM('color',(#1509),#15);
#1509 = PRESENTATION_STYLE_ASSIGNMENT((#1510,#1516));
#1510 = SURFACE_STYLE_USAGE(.BOTH.,#1511);
#1511 = SURFACE_SIDE_STYLE('',(#1512));
#1512 = SURFACE_STYLE_FILL_AREA(#1513);
#1513 = FILL_AREA_STYLE('',(#1514));
#1514 = FILL_AREA_STYLE_COLOUR('',#1515);
#1515 = COLOUR_RGB('',0.800000011921,0.800000011921,0.800000011921);
#1516 = CURVE_STYLE('',#1517,POSITIVE_LENGTH_MEASURE(0.1),#1515);
#1517 = DRAUGHTING_PRE_DEFINED_CURVE_FONT('continuous');
ENDSEC;
END-ISO-10303-21;
